('c:\\users\\tuan\\miniconda3\\envs\\testexe\\tcl\\tcl8.6\\..\\tcl8',
 'tcl8',
 [],
 'DATA',
 [('tcl8\\8.6\\http-2.8.9.tm',
   'c:\\users\\tuan\\miniconda3\\envs\\testexe\\tcl\\tcl8.6\\..\\tcl8\\8.6\\http-2.8.9.tm',
   'DATA'),
  ('tcl8\\8.5\\msgcat-1.6.0.tm',
   'c:\\users\\tuan\\miniconda3\\envs\\testexe\\tcl\\tcl8.6\\..\\tcl8\\8.5\\msgcat-1.6.0.tm',
   'DATA'),
  ('tcl8\\8.5\\tcltest-2.4.0.tm',
   'c:\\users\\tuan\\miniconda3\\envs\\testexe\\tcl\\tcl8.6\\..\\tcl8\\8.5\\tcltest-2.4.0.tm',
   'DATA'),
  ('tcl8\\8.4\\platform-1.0.14.tm',
   'c:\\users\\tuan\\miniconda3\\envs\\testexe\\tcl\\tcl8.6\\..\\tcl8\\8.4\\platform-1.0.14.tm',
   'DATA'),
  ('tcl8\\8.4\\platform\\shell-1.1.4.tm',
   'c:\\users\\tuan\\miniconda3\\envs\\testexe\\tcl\\tcl8.6\\..\\tcl8\\8.4\\platform\\shell-1.1.4.tm',
   'DATA')])
