15/1/2021 12:03:12 AM,435426.0,393865.0,348752.0,248345.0,72639.0,22612.0,16672.0,4280.0,1519.0,1589.0,1036.0,575.0,191.0,162.0,70.0,35.0,14.0,8.0,8.0.1,3.0,3.0.1,1.0,0.0,0.0.1,1.0.1,0.0.2,0.0.3,0.0.4,0.0.5,0.0.6,0.0.7
15/1/2021 12:08:12 AM,437477.0,395879.0,351860.0,250793.0,72942.0,23179.0,16668.0,4200.0,1541.0,1626.0,1072.0,542.0,206.0,161.0,85.0,37.0,13.0,7.0,8.0,3.0,1.0,1.0,1.0,0.0,0.0,1.0,0.0,0.0,0.0,0.0,0.0
15/1/2021 12:13:12 AM,437785.0,396702.0,350808.0,251425.0,72998.0,22672.0,16665.0,4139.0,1533.0,1540.0,956.0,557.0,205.0,170.0,70.0,39.0,14.0,7.0,9.0,3.0,1.0,1.0,1.0,2.0,0.0,0.0,0.0,0.0,0.0,0.0,0.0
15/1/2021 12:18:12 AM,435932.0,395122.0,352349.0,251951.0,72509.0,22968.0,16427.0,4252.0,1570.0,1513.0,1036.0,590.0,196.0,148.0,90.0,33.0,19.0,7.0,8.0,7.0,1.0,1.0,1.0,1.0,0.0,0.0,1.0,0.0,0.0,0.0,0.0
15/1/2021 12:23:12 AM,434573.0,395072.0,352527.0,253430.0,72853.0,22633.0,16527.0,4257.0,1513.0,1570.0,984.0,502.0,216.0,160.0,78.0,41.0,15.0,6.0,9.0,5.0,0.0,1.0,1.0,0.0,1.0,0.0,0.0,1.0,0.0,0.0,0.0
15/1/2021 12:28:12 AM,433669.0,394471.0,352646.0,252766.0,73229.0,23065.0,16319.0,4266.0,1443.0,1551.0,984.0,527.0,204.0,155.0,82.0,39.0,19.0,11.0,12.0,3.0,3.0,0.0,0.0,1.0,0.0,0.0,0.0,0.0,0.0,0.0,0.0
15/1/2021 12:33:12 AM,433488.0,395128.0,351664.0,252368.0,72682.0,22857.0,16315.0,4052.0,1430.0,1534.0,958.0,532.0,170.0,158.0,79.0,37.0,16.0,7.0,9.0,4.0,0.0,1.0,1.0,1.0,0.0,1.0,1.0,0.0,0.0,0.0,0.0
15/1/2021 12:38:12 AM,436724.0,398670.0,355968.0,255962.0,73574.0,23098.0,16569.0,4127.0,1520.0,1602.0,967.0,543.0,190.0,177.0,63.0,31.0,14.0,8.0,8.0,3.0,2.0,1.0,1.0,1.0,0.0,0.0,0.0,0.0,0.0,0.0,0.0
15/1/2021 12:43:12 AM,438448.0,400021.0,357839.0,258555.0,73610.0,23137.0,16648.0,4210.0,1537.0,1572.0,997.0,521.0,194.0,163.0,66.0,31.0,11.0,7.0,6.0,3.0,1.0,0.0,1.0,0.0,0.0,0.0,0.0,0.0,0.0,0.0,0.0
15/1/2021 12:48:12 AM,437186.0,400458.0,358974.0,256423.0,74064.0,22918.0,16405.0,4171.0,1463.0,1514.0,1003.0,539.0,188.0,151.0,77.0,38.0,13.0,7.0,7.0,4.0,0.0,1.0,0.0,0.0,0.0,0.0,0.0,0.0,0.0,0.0,0.0
15/1/2021 12:53:12 AM,439451.0,401081.0,361814.0,260156.0,74523.0,23163.0,16714.0,4092.0,1496.0,1594.0,987.0,521.0,201.0,158.0,62.0,37.0,11.0,5.0,7.0,1.0,1.0,1.0,0.0,1.0,0.0,0.0,0.0,0.0,0.0,0.0,0.0
15/1/2021 12:58:12 AM,439885.0,403353.0,363082.0,260058.0,74403.0,23322.0,16637.0,4211.0,1458.0,1565.0,1063.0,504.0,204.0,149.0,61.0,35.0,12.0,3.0,4.0,3.0,1.0,1.0,0.0,0.0,0.0,0.0,0.0,0.0,0.0,0.0,0.0
15/1/2021 1:03:12 AM,438681.0,402305.0,365412.0,262369.0,75559.0,23578.0,16567.0,4198.0,1576.0,1597.0,1049.0,562.0,163.0,167.0,76.0,30.0,10.0,9.0,5.0,1.0,0.0,1.0,0.0,0.0,1.0,0.0,0.0,0.0,0.0,0.0,0.0
15/1/2021 1:08:12 AM,437865.0,401920.0,367188.0,262419.0,75714.0,23479.0,16908.0,4203.0,1537.0,1557.0,1075.0,572.0,199.0,152.0,66.0,36.0,10.0,5.0,4.0,1.0,1.0,0.0,1.0,0.0,0.0,0.0,0.0,0.0,0.0,0.0,0.0
15/1/2021 1:13:12 AM,440929.0,405311.0,370248.0,266572.0,76684.0,23529.0,16892.0,4240.0,1529.0,1612.0,1030.0,519.0,174.0,156.0,70.0,26.0,10.0,4.0,6.0,2.0,0.0,0.0,0.0,1.0,0.0,0.0,0.0,0.0,0.0,0.0,0.0
15/1/2021 1:18:12 AM,441373.0,406131.0,372688.0,267389.0,76992.0,23718.0,17152.0,4302.0,1519.0,1597.0,1039.0,571.0,166.0,153.0,87.0,35.0,11.0,5.0,2.0,1.0,1.0,0.0,0.0,0.0,0.0,0.0,0.0,0.0,0.0,0.0,0.0
15/1/2021 1:23:12 AM,445582.0,410755.0,378314.0,271804.0,77903.0,23897.0,17401.0,4372.0,1523.0,1622.0,1091.0,610.0,200.0,151.0,65.0,32.0,14.0,4.0,6.0,2.0,0.0,0.0,0.0,1.0,0.0,0.0,0.0,0.0,1.0,0.0,0.0
15/1/2021 1:28:12 AM,451436.0,417715.0,387396.0,278458.0,79880.0,24857.0,17891.0,4460.0,1543.0,1710.0,1050.0,595.0,185.0,177.0,64.0,32.0,10.0,7.0,3.0,3.0,0.0,1.0,1.0,0.0,1.0,0.0,0.0,0.0,0.0,0.0,0.0
15/1/2021 1:33:12 AM,453732.0,420677.0,390272.0,280016.0,81760.0,25342.0,18098.0,4549.0,1660.0,1724.0,1110.0,573.0,232.0,160.0,84.0,34.0,11.0,6.0,7.0,1.0,1.0,1.0,0.0,1.0,1.0,0.0,0.0,1.0,0.0,0.0,0.0
15/1/2021 1:38:12 AM,452498.0,419240.0,389862.0,280735.0,80787.0,25190.0,18162.0,4488.0,1670.0,1661.0,1062.0,585.0,214.0,164.0,58.0,26.0,12.0,5.0,5.0,2.0,0.0,0.0,1.0,0.0,0.0,1.0,0.0,0.0,0.0,0.0,0.0
15/1/2021 1:43:12 AM,455833.0,421662.0,390750.0,282340.0,81826.0,25314.0,18137.0,4483.0,1645.0,1673.0,1106.0,562.0,202.0,141.0,58.0,31.0,12.0,5.0,5.0,1.0,2.0,0.0,0.0,1.0,0.0,0.0,0.0,0.0,0.0,0.0,0.0
15/1/2021 1:48:12 AM,457856.0,423206.0,390487.0,279173.0,80471.0,25198.0,17774.0,4475.0,1573.0,1695.0,1060.0,590.0,196.0,160.0,63.0,28.0,12.0,7.0,4.0,2.0,0.0,0.0,0.0,0.0,1.0,0.0,0.0,0.0,0.0,0.0,0.0
15/1/2021 1:53:12 AM,453742.0,419628.0,389015.0,277119.0,79800.0,24970.0,17717.0,4476.0,1560.0,1661.0,1069.0,535.0,192.0,158.0,59.0,29.0,12.0,5.0,6.0,1.0,1.0,1.0,1.0,0.0,0.0,0.0,0.0,0.0,0.0,0.0,0.0
15/1/2021 1:58:12 AM,448197.0,414735.0,384957.0,273415.0,78618.0,24347.0,17832.0,4380.0,1566.0,1628.0,1019.0,555.0,199.0,133.0,65.0,25.0,8.0,5.0,4.0,1.0,1.0,0.0,0.0,0.0,0.0,1.0,0.0,0.0,0.0,0.0,0.0
15/1/2021 2:03:12 AM,443437.0,411330.0,380224.0,269649.0,78041.0,24244.0,17496.0,4378.0,1534.0,1658.0,995.0,533.0,186.0,136.0,68.0,32.0,11.0,7.0,5.0,2.0,0.0,0.0,0.0,1.0,0.0,0.0,0.0,0.0,0.0,0.0,0.0
15/1/2021 2:08:12 AM,428114.0,395971.0,366750.0,261270.0,74829.0,22979.0,16437.0,4087.0,1536.0,1570.0,1034.0,493.0,166.0,142.0,64.0,27.0,10.0,4.0,4.0,3.0,0.0,0.0,1.0,0.0,0.0,0.0,0.0,0.0,0.0,0.0,0.0
15/1/2021 2:13:12 AM,386087.0,354465.0,336278.0,240092.0,67488.0,20133.0,13878.0,3341.0,1202.0,1230.0,760.0,427.0,129.0,105.0,33.0,10.0,5.0,1.0,2.0,0.0,0.0,1.0,0.0,0.0,0.0,0.0,0.0,0.0,0.0,0.0,0.0
15/1/2021 2:18:12 AM,415247.0,383363.0,359516.0,256985.0,73592.0,22593.0,15559.0,4062.0,1363.0,1482.0,935.0,489.0,152.0,98.0,56.0,21.0,7.0,4.0,3.0,2.0,0.0,0.0,0.0,0.0,0.0,0.0,0.0,0.0,0.0,0.0,0.0
15/1/2021 2:23:12 AM,424691.0,395030.0,372446.0,267352.0,77560.0,24211.0,17060.0,4302.0,1565.0,1603.0,1034.0,562.0,168.0,139.0,64.0,27.0,10.0,6.0,4.0,1.0,1.0,0.0,0.0,0.0,1.0,0.0,0.0,0.0,0.0,0.0,0.0
15/1/2021 2:28:12 AM,422649.0,393462.0,371160.0,269597.0,78830.0,24875.0,17763.0,4396.0,1541.0,1622.0,963.0,575.0,182.0,141.0,45.0,18.0,9.0,4.0,4.0,1.0,0.0,0.0,1.0,0.0,0.0,0.0,0.0,0.0,0.0,0.0,0.0
15/1/2021 2:33:12 AM,412269.0,383569.0,362134.0,265325.0,77706.0,24185.0,17270.0,4262.0,1465.0,1551.0,1065.0,515.0,143.0,136.0,76.0,36.0,10.0,4.0,5.0,2.0,1.0,1.0,0.0,1.0,0.0,0.0,1.0,0.0,0.0,0.0,0.0
15/1/2021 2:38:12 AM,384874.0,357970.0,344239.0,251163.0,73964.0,23104.0,16348.0,4137.0,1455.0,1509.0,958.0,517.0,196.0,115.0,65.0,25.0,8.0,4.0,2.0,1.0,0.0,0.0,1.0,0.0,0.0,1.0,0.0,0.0,0.0,0.0,0.0
15/1/2021 2:43:12 AM,370220.0,342200.0,332656.0,245249.0,73042.0,22881.0,16170.0,4142.0,1475.0,1455.0,929.0,514.0,146.0,145.0,78.0,39.0,6.0,4.0,2.0,0.0,1.0,0.0,0.0,0.0,0.0,0.0,0.0,0.0,0.0,0.0,0.0
15/1/2021 2:48:12 AM,353372.0,325129.0,315172.0,233635.0,70436.0,22303.0,15802.0,4011.0,1404.0,1366.0,874.0,494.0,153.0,105.0,38.0,17.0,3.0,2.0,1.0,0.0,0.0,1.0,0.0,0.0,0.0,0.0,0.0,0.0,0.0,0.0,0.0
15/1/2021 2:53:12 AM,320131.0,287679.0,280626.0,214503.0,67797.0,21918.0,15436.0,4124.0,1428.0,1431.0,800.0,443.0,131.0,113.0,40.0,11.0,3.0,0.0,1.0,1.0,0.0,0.0,0.0,0.0,0.0,0.0,0.0,0.0,0.0,0.0,0.0
15/1/2021 2:58:12 AM,301803.0,264774.0,259251.0,202886.0,66428.0,21778.0,15756.0,4351.0,1471.0,1498.0,919.0,429.0,153.0,97.0,42.0,10.0,3.0,1.0,1.0,0.0,0.0,0.0,0.0,0.0,0.0,0.0,0.0,0.0,0.0,0.0,0.0
15/1/2021 3:03:12 AM,288637.0,250156.0,243560.0,194072.0,64939.0,21038.0,15362.0,4196.0,1372.0,1476.0,813.0,433.0,136.0,112.0,40.0,10.0,3.0,1.0,0.0,0.0,0.0,0.0,0.0,0.0,0.0,0.0,0.0,0.0,0.0,0.0,0.0
15/1/2021 3:08:11 AM,284265.0,238702.0,229939.0,188131.0,64915.0,21792.0,15759.0,4285.0,1419.0,1486.0,863.0,432.0,115.0,105.0,31.0,10.0,2.0,1.0,0.0,0.0,0.0,0.0,0.0,0.0,0.0,0.0,0.0,0.0,0.0,0.0,0.0
15/1/2021 3:13:12 AM,269243.0,220751.0,210686.0,176914.0,63111.0,21466.0,15232.0,4308.0,1435.0,1474.0,842.0,441.0,150.0,85.0,28.0,4.0,0.0,1.0,1.0,0.0,0.0,0.0,0.0,0.0,0.0,0.0,0.0,0.0,0.0,0.0,0.0
15/1/2021 3:18:11 AM,274836.0,223376.0,212482.0,182401.0,66360.0,23260.0,17112.0,4830.0,1729.0,1700.0,977.0,468.0,159.0,106.0,27.0,8.0,2.0,0.0,0.0,0.0,0.0,0.0,0.0,0.0,0.0,0.0,0.0,0.0,0.0,0.0,0.0
15/1/2021 3:23:12 AM,277590.0,225211.0,213385.0,182085.0,67522.0,23394.0,16977.0,4741.0,1502.0,1583.0,966.0,470.0,154.0,97.0,22.0,6.0,1.0,0.0,1.0,0.0,0.0,0.0,0.0,0.0,0.0,0.0,0.0,0.0,0.0,0.0,0.0
15/1/2021 3:28:12 AM,268349.0,221293.0,216579.0,189381.0,69669.0,23727.0,16997.0,4713.0,1585.0,1621.0,949.0,486.0,147.0,122.0,34.0,7.0,1.0,1.0,0.0,1.0,0.0,0.0,0.0,1.0,0.0,0.0,0.0,1.0,0.0,0.0,0.0
15/1/2021 3:33:12 AM,267396.0,224069.0,224641.0,199494.0,73662.0,24888.0,18017.0,5033.0,1728.0,1761.0,1034.0,474.0,180.0,113.0,53.0,15.0,3.0,2.0,1.0,0.0,0.0,0.0,1.0,0.0,1.0,0.0,0.0,0.0,0.0,0.0,0.0
15/1/2021 3:38:12 AM,276679.0,230912.0,225823.0,196711.0,72543.0,24748.0,18118.0,5235.0,1776.0,1752.0,1002.0,510.0,170.0,139.0,36.0,14.0,5.0,2.0,4.0,0.0,1.0,1.0,1.0,0.0,1.0,0.0,0.0,0.0,0.0,0.0,0.0
15/1/2021 3:43:12 AM,274406.0,226678.0,217372.0,188854.0,68848.0,24233.0,17664.0,4963.0,1682.0,1740.0,1089.0,489.0,184.0,131.0,48.0,13.0,8.0,4.0,2.0,2.0,0.0,0.0,0.0,1.0,0.0,0.0,1.0,0.0,0.0,0.0,0.0
15/1/2021 3:48:12 AM,258106.0,214606.0,211517.0,186383.0,68964.0,23714.0,17609.0,4952.0,1734.0,1715.0,1026.0,490.0,150.0,106.0,34.0,12.0,3.0,1.0,1.0,1.0,0.0,0.0,0.0,0.0,0.0,0.0,0.0,0.0,0.0,0.0,0.0
15/1/2021 3:53:11 AM,262523.0,218247.0,211943.0,184554.0,68032.0,23668.0,17355.0,5000.0,1680.0,1676.0,998.0,424.0,128.0,112.0,41.0,15.0,2.0,2.0,0.0,0.0,0.0,1.0,0.0,0.0,0.0,0.0,0.0,0.0,0.0,0.0,0.0
15/1/2021 3:58:12 AM,266003.0,221499.0,215982.0,189395.0,69593.0,24275.0,18165.0,4973.0,1707.0,1770.0,1010.0,463.0,124.0,111.0,40.0,8.0,2.0,1.0,1.0,0.0,1.0,0.0,0.0,1.0,0.0,0.0,0.0,0.0,0.0,0.0,0.0
15/1/2021 4:03:12 AM,265279.0,223477.0,219816.0,192822.0,70416.0,24570.0,17959.0,5110.0,1699.0,1774.0,1007.0,473.0,159.0,103.0,37.0,15.0,2.0,2.0,2.0,0.0,0.0,1.0,0.0,0.0,0.0,0.0,0.0,0.0,0.0,0.0,0.0
15/1/2021 4:08:12 AM,270040.0,230824.0,224117.0,192607.0,69155.0,23482.0,17294.0,4812.0,1629.0,1633.0,1009.0,488.0,118.0,93.0,39.0,8.0,3.0,3.0,1.0,0.0,1.0,0.0,0.0,0.0,1.0,0.0,0.0,0.0,0.0,0.0,0.0
15/1/2021 4:13:11 AM,272058.0,232510.0,224214.0,190863.0,67090.0,22590.0,16570.0,4613.0,1556.0,1540.0,893.0,422.0,146.0,122.0,22.0,9.0,2.0,0.0,2.0,1.0,0.0,1.0,0.0,0.0,0.0,0.0,0.0,0.0,0.0,0.0,0.0
15/1/2021 4:18:11 AM,270932.0,232306.0,223541.0,189344.0,66044.0,22075.0,16183.0,4464.0,1512.0,1563.0,861.0,430.0,124.0,112.0,37.0,12.0,2.0,2.0,0.0,0.0,1.0,0.0,0.0,0.0,0.0,0.0,0.0,0.0,0.0,0.0,0.0
15/1/2021 4:23:12 AM,261510.0,228095.0,220609.0,186206.0,63765.0,21089.0,15034.0,4051.0,1381.0,1388.0,801.0,383.0,113.0,90.0,34.0,8.0,2.0,1.0,0.0,1.0,0.0,0.0,0.0,0.0,0.0,0.0,0.0,0.0,0.0,0.0,0.0
15/1/2021 4:28:12 AM,266456.0,233050.0,226641.0,188325.0,63160.0,21427.0,15297.0,4140.0,1389.0,1396.0,819.0,361.0,114.0,82.0,30.0,12.0,1.0,1.0,2.0,0.0,0.0,0.0,0.0,0.0,0.0,0.0,0.0,0.0,0.0,0.0,0.0
15/1/2021 4:33:11 AM,281941.0,246857.0,240966.0,201173.0,68980.0,23321.0,16994.0,4523.0,1456.0,1487.0,874.0,423.0,125.0,101.0,39.0,9.0,2.0,1.0,0.0,0.0,0.0,0.0,0.0,0.0,0.0,0.0,0.0,0.0,0.0,0.0,0.0
15/1/2021 4:38:11 AM,290141.0,253415.0,246527.0,206964.0,71064.0,23951.0,17432.0,4687.0,1630.0,1582.0,950.0,384.0,129.0,88.0,29.0,9.0,2.0,1.0,1.0,0.0,0.0,0.0,0.0,0.0,0.0,0.0,0.0,0.0,0.0,0.0,0.0
15/1/2021 4:43:11 AM,296882.0,260427.0,253890.0,211508.0,72955.0,24356.0,17696.0,4881.0,1661.0,1694.0,978.0,447.0,139.0,115.0,29.0,12.0,3.0,2.0,0.0,1.0,0.0,0.0,0.0,0.0,0.0,0.0,0.0,0.0,0.0,0.0,0.0
15/1/2021 4:48:11 AM,296212.0,258939.0,251789.0,207856.0,70978.0,23432.0,17041.0,4624.0,1555.0,1503.0,936.0,461.0,129.0,107.0,33.0,11.0,3.0,1.0,3.0,0.0,0.0,0.0,1.0,0.0,0.0,0.0,0.0,0.0,0.0,0.0,0.0
15/1/2021 4:53:11 AM,295893.0,259858.0,253415.0,208369.0,69947.0,23386.0,16730.0,4598.0,1487.0,1504.0,893.0,423.0,141.0,95.0,24.0,9.0,2.0,1.0,0.0,1.0,0.0,0.0,0.0,0.0,0.0,0.0,0.0,0.0,0.0,0.0,0.0
15/1/2021 4:58:11 AM,296886.0,262663.0,255173.0,208670.0,69727.0,23202.0,16633.0,4469.0,1490.0,1424.0,893.0,428.0,131.0,120.0,32.0,6.0,0.0,1.0,1.0,0.0,0.0,0.0,0.0,0.0,0.0,0.0,0.0,0.0,0.0,0.0,0.0
15/1/2021 5:03:11 AM,319111.0,285155.0,281793.0,228060.0,75673.0,24368.0,17476.0,4681.0,1559.0,1568.0,977.0,472.0,131.0,100.0,40.0,10.0,4.0,1.0,0.0,0.0,1.0,0.0,0.0,0.0,0.0,0.0,0.0,0.0,0.0,0.0,0.0
15/1/2021 5:08:12 AM,338953.0,308317.0,309594.0,248694.0,82597.0,26665.0,19106.0,4951.0,1717.0,1829.0,1113.0,566.0,196.0,122.0,40.0,12.0,4.0,2.0,2.0,0.0,0.0,0.0,0.0,1.0,0.0,0.0,0.0,0.0,0.0,0.0,0.0
15/1/2021 5:13:12 AM,358962.0,331433.0,335642.0,268511.0,90365.0,29640.0,21694.0,5864.0,2002.0,2151.0,1275.0,648.0,199.0,164.0,45.0,13.0,3.0,2.0,0.0,0.0,0.0,0.0,1.0,0.0,0.0,0.0,0.0,0.0,0.0,0.0,0.0
15/1/2021 5:18:12 AM,381648.0,353790.0,363499.0,290807.0,99171.0,33059.0,24457.0,6780.0,2410.0,2491.0,1623.0,820.0,233.0,158.0,54.0,20.0,6.0,2.0,3.0,0.0,1.0,1.0,0.0,0.0,0.0,1.0,0.0,0.0,0.0,0.0,0.0
15/1/2021 5:23:12 AM,394018.0,368117.0,379742.0,306038.0,106400.0,34932.0,26117.0,7114.0,2519.0,2763.0,1621.0,917.0,271.0,222.0,66.0,31.0,9.0,4.0,4.0,2.0,0.0,0.0,2.0,0.0,1.0,0.0,0.0,1.0,0.0,0.0,0.0
15/1/2021 5:28:12 AM,394274.0,367187.0,381844.0,309888.0,107165.0,35911.0,26666.0,7323.0,2793.0,2969.0,1839.0,1023.0,310.0,252.0,112.0,48.0,19.0,10.0,6.0,4.0,2.0,1.0,1.0,2.0,1.0,0.0,1.0,0.0,0.0,0.0,0.0
15/1/2021 5:33:12 AM,392050.0,366835.0,379601.0,309399.0,109329.0,36050.0,27163.0,7401.0,2715.0,3047.0,1776.0,971.0,307.0,247.0,89.0,49.0,22.0,6.0,5.0,2.0,1.0,1.0,0.0,1.0,0.0,1.0,0.0,1.0,0.0,0.0,0.0
15/1/2021 5:38:12 AM,391159.0,363816.0,375325.0,304644.0,108378.0,36527.0,27054.0,7370.0,2751.0,2954.0,1872.0,945.0,296.0,258.0,75.0,30.0,10.0,4.0,4.0,2.0,1.0,0.0,0.0,0.0,1.0,0.0,0.0,0.0,0.0,0.0,0.0
15/1/2021 5:43:12 AM,384848.0,356640.0,365815.0,296421.0,107197.0,36542.0,27305.0,7539.0,2671.0,2932.0,1838.0,961.0,258.0,190.0,54.0,15.0,5.0,2.0,1.0,1.0,0.0,0.0,1.0,0.0,0.0,1.0,0.0,0.0,0.0,0.0,0.0
15/1/2021 5:48:12 AM,371701.0,341755.0,350848.0,286461.0,103413.0,35147.0,26431.0,7205.0,2570.0,2796.0,1686.0,846.0,243.0,181.0,45.0,15.0,3.0,2.0,1.0,0.0,0.0,0.0,0.0,0.0,0.0,0.0,0.0,0.0,0.0,0.0,0.0
15/1/2021 5:53:11 AM,364536.0,333009.0,340711.0,280726.0,101423.0,34511.0,25786.0,7196.0,2625.0,2697.0,1684.0,900.0,260.0,180.0,55.0,23.0,4.0,2.0,2.0,1.0,0.0,0.0,1.0,0.0,1.0,0.0,0.0,1.0,0.0,0.0,0.0
15/1/2021 5:58:11 AM,364832.0,332504.0,337350.0,278966.0,100924.0,34422.0,26238.0,7234.0,2507.0,2749.0,1611.0,826.0,245.0,174.0,62.0,14.0,6.0,2.0,1.0,1.0,0.0,1.0,0.0,1.0,0.0,0.0,0.0,0.0,0.0,0.0,0.0
15/1/2021 6:03:11 AM,359974.0,328671.0,330065.0,273947.0,98077.0,34086.0,25532.0,7127.0,2582.0,2677.0,1608.0,795.0,246.0,160.0,54.0,15.0,4.0,2.0,1.0,0.0,0.0,0.0,1.0,0.0,0.0,1.0,0.0,0.0,0.0,0.0,0.0
15/1/2021 6:08:11 AM,345450.0,312381.0,314007.0,260909.0,92890.0,31654.0,23802.0,6372.0,2300.0,2635.0,1497.0,688.0,205.0,130.0,64.0,16.0,4.0,1.0,1.0,1.0,1.0,0.0,0.0,0.0,0.0,0.0,0.0,0.0,0.0,0.0,0.0
15/1/2021 6:13:11 AM,341955.0,309000.0,312368.0,259824.0,90674.0,30824.0,22841.0,6294.0,2336.0,2364.0,1481.0,746.0,218.0,146.0,46.0,10.0,5.0,2.0,2.0,0.0,0.0,1.0,0.0,0.0,0.0,0.0,0.0,0.0,0.0,0.0,0.0
15/1/2021 6:18:11 AM,337659.0,303994.0,306268.0,255004.0,89094.0,30042.0,22277.0,6114.0,2229.0,2349.0,1350.0,703.0,222.0,125.0,49.0,10.0,4.0,1.0,2.0,0.0,0.0,0.0,0.0,1.0,0.0,0.0,0.0,0.0,0.0,0.0,0.0
15/1/2021 6:23:12 AM,355382.0,326416.0,325661.0,269295.0,97607.0,33747.0,25249.0,7035.0,2427.0,2680.0,1586.0,802.0,254.0,170.0,47.0,24.0,4.0,3.0,1.0,1.0,0.0,1.0,0.0,0.0,0.0,0.0,0.0,0.0,0.0,0.0,0.0
15/1/2021 6:28:11 AM,353206.0,320397.0,316930.0,262028.0,95443.0,33219.0,25294.0,7002.0,2558.0,2701.0,1763.0,834.0,226.0,171.0,61.0,23.0,5.0,2.0,2.0,0.0,1.0,0.0,0.0,0.0,1.0,0.0,0.0,0.0,0.0,0.0,0.0
15/1/2021 6:33:11 AM,356531.0,323424.0,316635.0,264123.0,95505.0,33659.0,25719.0,6919.0,2520.0,2683.0,1643.0,728.0,217.0,153.0,42.0,17.0,4.0,2.0,3.0,1.0,0.0,0.0,1.0,0.0,0.0,0.0,0.0,0.0,0.0,0.0,0.0
15/1/2021 6:38:11 AM,354881.0,320267.0,314676.0,261783.0,96602.0,33524.0,25983.0,7185.0,2581.0,2603.0,1633.0,776.0,211.0,146.0,45.0,17.0,3.0,2.0,0.0,0.0,1.0,0.0,0.0,0.0,0.0,0.0,0.0,0.0,0.0,0.0,0.0
15/1/2021 6:43:11 AM,350592.0,316686.0,312474.0,256401.0,93539.0,32633.0,24645.0,6924.0,2352.0,2502.0,1488.0,756.0,178.0,136.0,30.0,14.0,4.0,1.0,2.0,1.0,0.0,1.0,0.0,0.0,0.0,0.0,0.0,0.0,0.0,0.0,0.0
15/1/2021 6:48:12 AM,365180.0,334386.0,332053.0,268844.0,93897.0,31931.0,23465.0,6371.0,2180.0,2334.0,1379.0,656.0,201.0,155.0,39.0,14.0,4.0,2.0,2.0,0.0,0.0,0.0,0.0,1.0,0.0,0.0,0.0,0.0,0.0,0.0,0.0
15/1/2021 6:53:11 AM,389206.0,358373.0,353563.0,281056.0,93642.0,30987.0,22356.0,5869.0,1965.0,2133.0,1256.0,627.0,212.0,148.0,38.0,21.0,7.0,2.0,3.0,0.0,0.0,1.0,0.0,0.0,0.0,0.0,0.0,0.0,0.0,0.0,0.0
15/1/2021 6:58:11 AM,408367.0,376308.0,370364.0,289640.0,95162.0,30642.0,22482.0,5645.0,1949.0,2086.0,1298.0,699.0,234.0,150.0,71.0,23.0,6.0,4.0,2.0,2.0,0.0,0.0,0.0,0.0,0.0,1.0,0.0,0.0,0.0,0.0,0.0
15/1/2021 7:03:11 AM,389658.0,354008.0,337586.0,263668.0,85698.0,28349.0,20715.0,5320.0,1759.0,1897.0,1128.0,589.0,178.0,160.0,61.0,16.0,5.0,3.0,2.0,0.0,1.0,1.0,0.0,0.0,0.0,0.0,0.0,0.0,0.0,0.0,0.0
15/1/2021 7:08:11 AM,379699.0,342433.0,325215.0,249195.0,80639.0,26631.0,19071.0,4858.0,1705.0,1819.0,1118.0,555.0,173.0,159.0,50.0,19.0,7.0,2.0,0.0,2.0,1.0,0.0,1.0,0.0,0.0,0.0,0.0,0.0,1.0,0.0,0.0
15/1/2021 7:13:11 AM,374628.0,338681.0,318741.0,245639.0,79923.0,25852.0,18597.0,4876.0,1643.0,1699.0,1039.0,529.0,152.0,155.0,56.0,18.0,6.0,2.0,2.0,1.0,0.0,1.0,0.0,1.0,0.0,0.0,0.0,0.0,0.0,0.0,0.0
15/1/2021 7:18:11 AM,382444.0,346647.0,327879.0,252960.0,81485.0,26932.0,19438.0,4983.0,1799.0,1821.0,1084.0,583.0,201.0,121.0,43.0,20.0,7.0,4.0,2.0,1.0,1.0,0.0,0.0,0.0,0.0,0.0,0.0,0.0,0.0,0.0,0.0
15/1/2021 7:23:11 AM,426670.0,392409.0,379907.0,296070.0,95000.0,30978.0,22602.0,5650.0,1902.0,2022.0,1320.0,684.0,221.0,187.0,78.0,34.0,19.0,8.0,7.0,2.0,0.0,0.0,1.0,0.0,0.0,0.0,0.0,0.0,0.0,0.0,0.0
15/1/2021 7:28:11 AM,426272.0,393508.0,381904.0,297278.0,95851.0,31184.0,22732.0,5672.0,1966.0,2086.0,1305.0,681.0,244.0,228.0,92.0,38.0,16.0,7.0,8.0,3.0,2.0,0.0,1.0,0.0,1.0,0.0,1.0,0.0,0.0,0.0,0.0
15/1/2021 7:33:11 AM,424393.0,390457.0,378588.0,298291.0,96111.0,31185.0,23260.0,5637.0,1872.0,2158.0,1310.0,664.0,221.0,215.0,82.0,52.0,18.0,7.0,8.0,3.0,0.0,1.0,0.0,1.0,0.0,0.0,0.0,0.0,0.0,0.0,0.0
15/1/2021 7:38:11 AM,419603.0,385050.0,373524.0,294386.0,95488.0,31223.0,22888.0,5611.0,2002.0,2125.0,1264.0,694.0,215.0,162.0,98.0,46.0,13.0,7.0,7.0,1.0,1.0,1.0,0.0,0.0,0.0,1.0,0.0,0.0,0.0,0.0,0.0
15/1/2021 7:43:11 AM,408178.0,376333.0,365840.0,289413.0,94679.0,31007.0,22894.0,5610.0,1924.0,2089.0,1284.0,654.0,244.0,174.0,71.0,42.0,17.0,8.0,6.0,2.0,0.0,1.0,1.0,0.0,1.0,0.0,0.0,0.0,0.0,0.0,0.0
15/1/2021 7:48:12 AM,400429.0,369544.0,360013.0,284373.0,92680.0,30595.0,22222.0,5561.0,1913.0,1927.0,1300.0,632.0,206.0,158.0,61.0,30.0,9.0,8.0,2.0,1.0,1.0,0.0,0.0,1.0,0.0,0.0,0.0,0.0,0.0,0.0,0.0
15/1/2021 7:53:11 AM,394073.0,363898.0,357718.0,284677.0,94339.0,30971.0,22625.0,5709.0,1849.0,2034.0,1265.0,645.0,201.0,156.0,50.0,19.0,6.0,5.0,5.0,1.0,1.0,1.0,0.0,1.0,0.0,0.0,0.0,0.0,0.0,0.0,0.0
15/1/2021 7:58:11 AM,397400.0,366326.0,359696.0,288746.0,95233.0,31367.0,23002.0,5774.0,2023.0,2126.0,1306.0,592.0,208.0,158.0,59.0,22.0,10.0,6.0,5.0,2.0,0.0,1.0,1.0,0.0,0.0,1.0,0.0,0.0,0.0,0.0,0.0
15/1/2021 8:03:11 AM,406358.0,374815.0,367669.0,291802.0,97239.0,32312.0,23557.0,5734.0,1928.0,2104.0,1339.0,613.0,188.0,137.0,81.0,37.0,11.0,6.0,3.0,1.0,1.0,1.0,0.0,0.0,1.0,0.0,0.0,1.0,0.0,0.0,0.0
15/1/2021 8:08:11 AM,445177.0,411504.0,398025.0,311096.0,99658.0,32702.0,23579.0,5896.0,2077.0,2164.0,1343.0,740.0,221.0,212.0,81.0,37.0,14.0,9.0,10.0,5.0,1.0,1.0,4.0,1.0,0.0,1.0,0.0,0.0,0.0,0.0,0.0
15/1/2021 8:13:11 AM,449002.0,419524.0,410384.0,320621.0,101990.0,33091.0,24140.0,5753.0,2003.0,2091.0,1362.0,721.0,229.0,175.0,83.0,41.0,16.0,9.0,9.0,4.0,3.0,1.0,0.0,2.0,1.0,0.0,0.0,0.0,0.0,0.0,0.0
15/1/2021 8:18:11 AM,464295.0,438218.0,433415.0,336112.0,105805.0,33543.0,24551.0,5606.0,1905.0,2087.0,1265.0,714.0,237.0,199.0,89.0,42.0,16.0,5.0,11.0,4.0,2.0,1.0,1.0,0.0,1.0,0.0,1.0,0.0,0.0,0.0,0.0
15/1/2021 8:23:11 AM,463529.0,436428.0,433181.0,336170.0,105967.0,34053.0,24352.0,5653.0,1980.0,2122.0,1275.0,691.0,230.0,198.0,86.0,46.0,13.0,9.0,9.0,2.0,2.0,1.0,1.0,0.0,0.0,2.0,0.0,1.0,0.0,0.0,0.0
15/1/2021 8:28:11 AM,466116.0,437931.0,435048.0,339533.0,107942.0,34594.0,25052.0,5839.0,2107.0,2135.0,1362.0,709.0,216.0,204.0,79.0,37.0,16.0,7.0,8.0,4.0,1.0,0.0,1.0,1.0,0.0,0.0,1.0,0.0,0.0,0.0,0.0
15/1/2021 8:33:11 AM,461576.0,435046.0,436614.0,346113.0,112123.0,36286.0,26221.0,6225.0,2102.0,2241.0,1392.0,670.0,241.0,159.0,63.0,35.0,15.0,7.0,6.0,1.0,2.0,1.0,0.0,1.0,1.0,0.0,0.0,0.0,0.0,0.0,0.0
15/1/2021 8:38:11 AM,461299.0,435439.0,436575.0,346903.0,113217.0,36612.0,26353.0,6375.0,2186.0,2266.0,1398.0,707.0,242.0,223.0,79.0,41.0,17.0,6.0,9.0,4.0,1.0,1.0,1.0,0.0,0.0,1.0,1.0,0.0,0.0,0.0,0.0
15/1/2021 8:43:11 AM,464103.0,438397.0,438519.0,349065.0,112641.0,36734.0,26652.0,6175.0,2098.0,2200.0,1335.0,699.0,276.0,201.0,94.0,43.0,15.0,9.0,9.0,5.0,2.0,0.0,1.0,1.0,1.0,0.0,0.0,0.0,0.0,0.0,0.0
15/1/2021 8:48:11 AM,463872.0,437643.0,440199.0,354101.0,115041.0,37375.0,26975.0,6343.0,2107.0,2286.0,1439.0,714.0,220.0,212.0,86.0,46.0,15.0,6.0,7.0,3.0,2.0,2.0,1.0,1.0,0.0,0.0,1.0,0.0,0.0,0.0,0.0
15/1/2021 8:53:11 AM,468453.0,444037.0,447504.0,358712.0,117288.0,38219.0,27191.0,6216.0,2125.0,2212.0,1384.0,709.0,260.0,180.0,99.0,39.0,18.0,8.0,8.0,4.0,2.0,2.0,0.0,1.0,1.0,1.0,0.0,0.0,0.0,0.0,0.0
15/1/2021 8:58:11 AM,474835.0,450529.0,454699.0,363469.0,117442.0,37859.0,27009.0,6295.0,2199.0,2227.0,1428.0,792.0,228.0,210.0,88.0,40.0,19.0,8.0,10.0,6.0,1.0,1.0,3.0,1.0,1.0,0.0,0.0,1.0,0.0,0.0,0.0
15/1/2021 9:03:11 AM,482632.0,458930.0,463159.0,367707.0,118059.0,37685.0,27237.0,6416.0,2203.0,2334.0,1482.0,775.0,290.0,213.0,100.0,47.0,20.0,9.0,9.0,5.0,4.0,2.0,1.0,1.0,0.0,1.0,0.0,0.0,0.0,0.0,0.0
15/1/2021 9:08:11 AM,482832.0,457469.0,463401.0,367220.0,117792.0,38349.0,27181.0,6446.0,2260.0,2487.0,1486.0,822.0,248.0,255.0,107.0,55.0,22.0,14.0,12.0,4.0,2.0,3.0,2.0,2.0,2.0,0.0,1.0,0.0,0.0,0.0,0.0
15/1/2021 9:13:11 AM,477354.0,453053.0,458687.0,367195.0,118686.0,38619.0,27971.0,6495.0,2246.0,2437.0,1523.0,772.0,264.0,226.0,103.0,54.0,18.0,10.0,14.0,7.0,3.0,2.0,1.0,1.0,0.0,1.0,0.0,1.0,0.0,0.0,0.0
15/1/2021 9:18:11 AM,476210.0,452360.0,458354.0,366614.0,119212.0,38638.0,27942.0,6435.0,2224.0,2500.0,1509.0,774.0,271.0,223.0,79.0,55.0,22.0,8.0,11.0,5.0,3.0,1.0,3.0,1.0,2.0,1.0,0.0,0.0,0.0,0.0,0.0
15/1/2021 9:23:11 AM,474977.0,448984.0,456214.0,367641.0,120126.0,39453.0,28508.0,6373.0,2308.0,2423.0,1564.0,810.0,266.0,223.0,112.0,47.0,18.0,11.0,12.0,6.0,3.0,1.0,1.0,2.0,1.0,0.0,0.0,1.0,0.0,0.0,0.0
15/1/2021 9:28:11 AM,473493.0,448946.0,457334.0,370768.0,122414.0,40522.0,28917.0,6691.0,2369.0,2587.0,1505.0,839.0,267.0,245.0,106.0,53.0,17.0,7.0,12.0,6.0,1.0,2.0,2.0,0.0,1.0,0.0,1.0,0.0,0.0,0.0,0.0
15/1/2021 9:33:11 AM,472226.0,447748.0,456361.0,372177.0,124150.0,41030.0,29863.0,6858.0,2428.0,2492.0,1548.0,855.0,288.0,235.0,95.0,48.0,19.0,9.0,12.0,7.0,3.0,0.0,3.0,1.0,0.0,1.0,0.0,0.0,0.0,0.0,0.0
15/1/2021 9:38:11 AM,465732.0,444345.0,455043.0,373466.0,124498.0,41403.0,29860.0,6786.0,2425.0,2477.0,1478.0,862.0,272.0,230.0,98.0,53.0,21.0,11.0,8.0,7.0,3.0,1.0,1.0,1.0,1.0,0.0,0.0,1.0,0.0,0.0,0.0
15/1/2021 9:43:11 AM,452305.0,431195.0,443643.0,367573.0,123413.0,41697.0,30102.0,7093.0,2306.0,2552.0,1502.0,747.0,276.0,200.0,85.0,49.0,15.0,8.0,9.0,4.0,1.0,1.0,1.0,2.0,0.0,0.0,1.0,0.0,1.0,0.0,0.0
15/1/2021 9:48:11 AM,456758.0,436150.0,447911.0,372424.0,125533.0,42037.0,31046.0,7243.0,2468.0,2514.0,1560.0,852.0,270.0,228.0,130.0,57.0,22.0,8.0,9.0,5.0,2.0,1.0,2.0,1.0,1.0,1.0,0.0,0.0,0.0,0.0,0.0
15/1/2021 9:53:11 AM,462061.0,442567.0,456435.0,377497.0,127750.0,43266.0,31429.0,7481.0,2589.0,2757.0,1751.0,933.0,310.0,247.0,81.0,46.0,19.0,10.0,11.0,7.0,1.0,1.0,0.0,1.0,1.0,0.0,0.0,0.0,0.0,0.0,0.0
15/1/2021 9:58:11 AM,448762.0,427079.0,438627.0,364574.0,125377.0,42335.0,31656.0,7444.0,2578.0,2835.0,1689.0,864.0,310.0,227.0,92.0,38.0,16.0,7.0,8.0,4.0,2.0,0.0,1.0,1.0,0.0,0.0,0.0,1.0,0.0,0.0,0.0
15/1/2021 10:03:11 AM,431199.0,409219.0,416979.0,350459.0,122426.0,41781.0,31350.0,7393.0,2538.0,2685.0,1700.0,849.0,286.0,209.0,82.0,41.0,13.0,5.0,7.0,2.0,2.0,1.0,1.0,2.0,1.0,0.0,0.0,0.0,0.0,0.0,0.0
15/1/2021 10:08:11 AM,416005.0,390450.0,395859.0,334000.0,116922.0,40320.0,29994.0,7105.0,2399.0,2578.0,1522.0,788.0,267.0,189.0,62.0,23.0,10.0,8.0,5.0,3.0,0.0,2.0,0.0,1.0,0.0,1.0,0.0,0.0,0.0,0.0,0.0
15/1/2021 10:13:11 AM,412868.0,387254.0,391727.0,331395.0,116064.0,40319.0,30038.0,7058.0,2336.0,2498.0,1489.0,841.0,236.0,169.0,78.0,27.0,11.0,6.0,8.0,3.0,2.0,1.0,1.0,0.0,1.0,0.0,0.0,0.0,0.0,0.0,0.0
15/1/2021 10:18:11 AM,413812.0,389840.0,389470.0,330544.0,116046.0,40565.0,30632.0,7271.0,2450.0,2709.0,1627.0,760.0,287.0,180.0,72.0,30.0,13.0,6.0,9.0,4.0,1.0,1.0,0.0,1.0,1.0,0.0,1.0,0.0,0.0,0.0,0.0
15/1/2021 10:23:11 AM,411609.0,387033.0,386284.0,327915.0,114780.0,39903.0,30150.0,7036.0,2496.0,2535.0,1628.0,749.0,258.0,167.0,66.0,37.0,15.0,7.0,8.0,2.0,1.0,1.0,2.0,1.0,1.0,1.0,0.0,0.0,0.0,0.0,0.0
15/1/2021 10:28:11 AM,411281.0,386827.0,387187.0,327509.0,114588.0,40245.0,30365.0,7244.0,2441.0,2527.0,1550.0,788.0,223.0,160.0,69.0,35.0,12.0,6.0,6.0,4.0,2.0,0.0,1.0,0.0,0.0,0.0,0.0,1.0,0.0,0.0,0.0
15/1/2021 10:33:11 AM,409928.0,384600.0,380285.0,320842.0,112032.0,38909.0,29072.0,6802.0,2268.0,2381.0,1461.0,712.0,238.0,176.0,80.0,30.0,13.0,8.0,7.0,4.0,1.0,2.0,0.0,1.0,0.0,1.0,0.0,0.0,0.0,0.0,0.0
15/1/2021 10:38:11 AM,403388.0,376905.0,370509.0,312479.0,108768.0,38049.0,28953.0,6718.0,2320.0,2433.0,1484.0,729.0,209.0,176.0,63.0,29.0,10.0,7.0,8.0,2.0,1.0,1.0,1.0,1.0,1.0,0.0,0.0,0.0,0.0,0.0,0.0
15/1/2021 10:43:11 AM,418555.0,391846.0,383340.0,322939.0,113127.0,39335.0,29813.0,7182.0,2399.0,2433.0,1502.0,713.0,229.0,179.0,81.0,40.0,17.0,6.0,9.0,5.0,0.0,2.0,1.0,1.0,0.0,1.0,0.0,0.0,0.0,0.0,0.0
15/1/2021 10:48:11 AM,419294.0,393189.0,382598.0,322209.0,112740.0,39066.0,29729.0,6987.0,2290.0,2451.0,1475.0,727.0,215.0,172.0,70.0,31.0,12.0,6.0,9.0,4.0,3.0,0.0,2.0,1.0,1.0,0.0,0.0,0.0,0.0,0.0,0.0
15/1/2021 10:53:11 AM,406290.0,378338.0,363584.0,304326.0,104067.0,36272.0,27231.0,6318.0,2056.0,2132.0,1274.0,668.0,195.0,174.0,65.0,40.0,14.0,7.0,8.0,3.0,2.0,0.0,0.0,1.0,0.0,1.0,0.0,0.0,0.0,0.0,0.0
15/1/2021 10:58:11 AM,406656.0,380580.0,369013.0,308288.0,105405.0,36106.0,27472.0,6358.0,2064.0,2148.0,1250.0,646.0,161.0,142.0,75.0,28.0,9.0,5.0,7.0,2.0,0.0,2.0,0.0,0.0,1.0,0.0,1.0,0.0,0.0,0.0,0.0
15/1/2021 11:03:11 AM,392235.0,365032.0,347605.0,289286.0,98218.0,33912.0,25718.0,5983.0,2027.0,1945.0,1185.0,547.0,168.0,122.0,47.0,22.0,7.0,7.0,4.0,2.0,1.0,0.0,1.0,1.0,0.0,0.0,0.0,0.0,0.0,0.0,0.0
15/1/2021 11:08:11 AM,382750.0,351482.0,332180.0,278150.0,94985.0,32586.0,24555.0,5635.0,1855.0,1917.0,1095.0,505.0,178.0,119.0,38.0,23.0,6.0,6.0,7.0,1.0,2.0,1.0,1.0,1.0,1.0,0.0,0.0,0.0,0.0,0.0,0.0
15/1/2021 11:13:11 AM,378554.0,347488.0,328907.0,275426.0,93540.0,32360.0,24313.0,5541.0,1847.0,1914.0,1068.0,516.0,156.0,130.0,54.0,26.0,12.0,6.0,6.0,4.0,1.0,1.0,1.0,0.0,0.0,1.0,0.0,0.0,1.0,0.0,0.0
15/1/2021 11:18:11 AM,380123.0,351341.0,333104.0,279142.0,95785.0,32892.0,24540.0,5625.0,1875.0,1865.0,1144.0,512.0,180.0,124.0,60.0,27.0,7.0,5.0,6.0,3.0,1.0,0.0,0.0,2.0,1.0,0.0,0.0,0.0,0.0,0.0,0.0
15/1/2021 11:23:11 AM,375220.0,345632.0,326744.0,274547.0,94388.0,32710.0,24605.0,5653.0,1932.0,1932.0,1105.0,532.0,155.0,105.0,45.0,19.0,11.0,6.0,6.0,3.0,2.0,1.0,0.0,2.0,0.0,0.0,1.0,0.0,0.0,0.0,0.0
15/1/2021 11:28:11 AM,369273.0,337466.0,317309.0,268442.0,92085.0,32027.0,24448.0,5634.0,1810.0,1798.0,1097.0,507.0,142.0,112.0,60.0,31.0,8.0,6.0,7.0,3.0,1.0,1.0,1.0,0.0,1.0,0.0,0.0,0.0,0.0,0.0,0.0
15/1/2021 11:33:11 AM,365070.0,333538.0,313836.0,263762.0,90468.0,31289.0,23596.0,5459.0,1839.0,1883.0,1072.0,473.0,152.0,100.0,45.0,24.0,10.0,4.0,6.0,5.0,2.0,2.0,1.0,0.0,0.0,1.0,0.0,0.0,0.0,0.0,0.0
15/1/2021 11:38:11 AM,380631.0,350642.0,328217.0,276573.0,94717.0,32760.0,24995.0,5663.0,1917.0,1907.0,1115.0,546.0,164.0,121.0,73.0,41.0,10.0,6.0,10.0,4.0,2.0,2.0,1.0,2.0,0.0,0.0,0.0,0.0,0.0,0.0,0.0
15/1/2021 11:43:11 AM,381231.0,351065.0,330486.0,278018.0,95412.0,32896.0,25102.0,5792.0,1894.0,1949.0,1111.0,544.0,164.0,112.0,66.0,33.0,10.0,7.0,9.0,5.0,2.0,0.0,2.0,2.0,0.0,0.0,0.0,1.0,0.0,0.0,0.0
15/1/2021 11:48:11 AM,387840.0,359161.0,337171.0,284835.0,98503.0,33919.0,25707.0,5760.0,1984.0,1875.0,1101.0,525.0,154.0,118.0,56.0,36.0,13.0,4.0,5.0,4.0,2.0,0.0,1.0,1.0,1.0,0.0,0.0,0.0,0.0,0.0,0.0
15/1/2021 11:53:11 AM,383085.0,354002.0,336100.0,285531.0,98297.0,34086.0,25856.0,5763.0,1893.0,1861.0,1148.0,522.0,165.0,109.0,74.0,33.0,6.0,5.0,7.0,3.0,2.0,1.0,1.0,1.0,0.0,1.0,0.0,0.0,0.0,0.0,0.0
15/1/2021 11:58:11 AM,363462.0,335205.0,314172.0,269318.0,92903.0,32311.0,23928.0,5422.0,1874.0,1791.0,981.0,506.0,124.0,109.0,55.0,21.0,8.0,4.0,6.0,3.0,3.0,1.0,1.0,1.0,1.0,0.0,1.0,0.0,0.0,0.0,0.0
15/1/2021 12:03:11 PM,358697.0,328800.0,308267.0,264403.0,90614.0,31473.0,23270.0,5333.0,1653.0,1698.0,946.0,446.0,136.0,112.0,56.0,30.0,6.0,4.0,6.0,3.0,0.0,0.0,2.0,0.0,1.0,0.0,0.0,0.0,0.0,0.0,0.0
15/1/2021 12:08:11 PM,362354.0,334457.0,315105.0,269338.0,92857.0,32278.0,24046.0,5294.0,1791.0,1766.0,993.0,507.0,141.0,112.0,46.0,27.0,9.0,4.0,7.0,4.0,1.0,1.0,1.0,1.0,0.0,0.0,0.0,1.0,0.0,0.0,0.0
15/1/2021 12:13:11 PM,370340.0,342061.0,325226.0,277155.0,95517.0,32580.0,24723.0,5439.0,1807.0,1847.0,969.0,480.0,151.0,112.0,79.0,39.0,7.0,7.0,9.0,3.0,2.0,2.0,1.0,1.0,1.0,1.0,0.0,0.0,1.0,0.0,0.0
15/1/2021 12:18:11 PM,336907.0,302815.0,276353.0,232651.0,78550.0,26709.0,20018.0,4444.0,1440.0,1368.0,782.0,374.0,98.0,84.0,50.0,28.0,7.0,7.0,3.0,3.0,0.0,2.0,0.0,1.0,0.0,0.0,0.0,0.0,0.0,0.0,0.0
15/1/2021 12:23:11 PM,342699.0,308795.0,281857.0,239307.0,81235.0,27589.0,20427.0,4694.0,1511.0,1439.0,811.0,397.0,140.0,106.0,37.0,17.0,9.0,8.0,8.0,2.0,2.0,1.0,2.0,0.0,0.0,1.0,0.0,0.0,0.0,1.0,0.0
15/1/2021 12:28:11 PM,345138.0,309576.0,283014.0,239552.0,80655.0,27843.0,20537.0,4637.0,1500.0,1410.0,853.0,405.0,133.0,95.0,55.0,29.0,6.0,5.0,7.0,6.0,2.0,1.0,0.0,2.0,2.0,0.0,1.0,0.0,0.0,0.0,0.0
15/1/2021 12:33:11 PM,334448.0,300521.0,273497.0,231504.0,78318.0,26204.0,19601.0,4342.0,1457.0,1322.0,766.0,391.0,127.0,83.0,35.0,23.0,5.0,3.0,6.0,4.0,1.0,1.0,1.0,1.0,0.0,0.0,0.0,0.0,0.0,0.0,0.0
15/1/2021 12:38:11 PM,360633.0,330345.0,307529.0,261647.0,88797.0,29993.0,22487.0,4892.0,1590.0,1583.0,868.0,452.0,137.0,95.0,31.0,18.0,10.0,6.0,6.0,2.0,2.0,0.0,2.0,0.0,2.0,0.0,0.0,0.0,0.0,0.0,0.0
15/1/2021 12:43:11 PM,373063.0,344447.0,328548.0,281153.0,95455.0,32474.0,23965.0,5113.0,1559.0,1589.0,925.0,461.0,125.0,113.0,51.0,23.0,8.0,4.0,5.0,3.0,1.0,1.0,1.0,2.0,0.0,0.0,0.0,0.0,0.0,0.0,0.0
15/1/2021 12:48:11 PM,342786.0,310599.0,293359.0,249214.0,83815.0,27968.0,20936.0,4569.0,1494.0,1388.0,797.0,431.0,122.0,67.0,47.0,22.0,5.0,3.0,3.0,1.0,1.0,1.0,0.0,0.0,0.0,0.0,0.0,1.0,0.0,0.0,0.0
15/1/2021 12:53:11 PM,452963.0,433647.0,441338.0,380921.0,132541.0,44401.0,32406.0,6863.0,2276.0,2240.0,1248.0,623.0,190.0,148.0,69.0,35.0,14.0,12.0,8.0,5.0,1.0,3.0,0.0,3.0,0.0,1.0,0.0,0.0,0.0,0.0,0.0
15/1/2021 12:58:11 PM,453854.0,435353.0,443441.0,383844.0,133332.0,45026.0,32410.0,6748.0,2186.0,2178.0,1250.0,595.0,182.0,151.0,68.0,34.0,14.0,9.0,10.0,6.0,3.0,1.0,3.0,2.0,0.0,1.0,0.0,1.0,0.0,0.0,0.0
15/1/2021 1:03:11 PM,451141.0,430967.0,438163.0,378743.0,131357.0,44341.0,32595.0,6956.0,2199.0,2206.0,1315.0,567.0,164.0,151.0,62.0,36.0,10.0,7.0,7.0,5.0,3.0,1.0,0.0,1.0,1.0,0.0,1.0,0.0,0.0,0.0,0.0
15/1/2021 1:08:11 PM,445536.0,425791.0,429616.0,372372.0,129497.0,44033.0,31835.0,6795.0,2181.0,2214.0,1232.0,613.0,165.0,138.0,69.0,40.0,13.0,8.0,9.0,6.0,2.0,2.0,2.0,1.0,1.0,0.0,0.0,0.0,0.0,0.0,0.0
15/1/2021 1:13:11 PM,435009.0,413958.0,416773.0,363598.0,125627.0,42770.0,31337.0,6602.0,2123.0,2146.0,1141.0,529.0,184.0,138.0,68.0,33.0,12.0,5.0,7.0,4.0,2.0,2.0,2.0,1.0,0.0,1.0,1.0,0.0,0.0,0.0,0.0
15/1/2021 1:18:11 PM,429510.0,410097.0,412929.0,359321.0,125903.0,42345.0,31018.0,6500.0,2140.0,2165.0,1192.0,525.0,182.0,137.0,62.0,24.0,9.0,8.0,5.0,4.0,1.0,1.0,1.0,2.0,1.0,0.0,1.0,0.0,0.0,0.0,0.0
15/1/2021 1:23:11 PM,420682.0,399565.0,397983.0,346249.0,119361.0,40396.0,29674.0,6224.0,2048.0,1970.0,1092.0,498.0,162.0,124.0,61.0,34.0,12.0,6.0,8.0,6.0,1.0,2.0,1.0,1.0,0.0,1.0,0.0,0.0,0.0,0.0,0.0
15/1/2021 1:28:11 PM,423574.0,400635.0,400080.0,347870.0,121395.0,40899.0,30079.0,6529.0,2061.0,2057.0,1104.0,541.0,163.0,117.0,65.0,27.0,9.0,5.0,9.0,4.0,2.0,2.0,1.0,1.0,0.0,0.0,0.0,0.0,1.0,0.0,0.0
15/1/2021 1:33:11 PM,423133.0,400274.0,399832.0,349054.0,122304.0,41638.0,30344.0,6380.0,2071.0,2102.0,1148.0,572.0,164.0,140.0,52.0,27.0,13.0,8.0,10.0,3.0,2.0,0.0,1.0,1.0,2.0,0.0,0.0,0.0,0.0,0.0,0.0
15/1/2021 1:38:11 PM,425713.0,401166.0,400754.0,350650.0,122345.0,41817.0,30458.0,6477.0,2157.0,2112.0,1201.0,570.0,169.0,123.0,81.0,34.0,15.0,6.0,9.0,5.0,2.0,2.0,2.0,1.0,0.0,0.0,1.0,0.0,0.0,0.0,0.0
15/1/2021 1:43:11 PM,422559.0,400841.0,398821.0,345893.0,120079.0,40858.0,30199.0,6249.0,2066.0,2069.0,1167.0,573.0,175.0,135.0,65.0,35.0,13.0,7.0,10.0,6.0,3.0,2.0,1.0,1.0,1.0,0.0,0.0,1.0,0.0,0.0,0.0
15/1/2021 1:48:11 PM,404290.0,380845.0,371503.0,321877.0,110157.0,36795.0,26934.0,5752.0,1850.0,1899.0,1037.0,477.0,139.0,107.0,53.0,27.0,7.0,7.0,7.0,4.0,1.0,1.0,1.0,1.0,0.0,1.0,0.0,0.0,0.0,0.0,0.0
15/1/2021 1:53:11 PM,382198.0,356399.0,342909.0,292675.0,97174.0,32769.0,23746.0,5050.0,1643.0,1534.0,871.0,415.0,142.0,101.0,48.0,22.0,7.0,7.0,8.0,3.0,2.0,0.0,1.0,1.0,2.0,0.0,0.0,1.0,0.0,0.0,0.0
15/1/2021 1:58:11 PM,384124.0,358308.0,340992.0,291309.0,97825.0,32271.0,23919.0,4928.0,1591.0,1581.0,949.0,421.0,121.0,104.0,58.0,28.0,9.0,6.0,8.0,6.0,1.0,2.0,1.0,3.0,0.0,0.0,1.0,0.0,0.0,0.0,0.0
15/1/2021 2:03:11 PM,369548.0,343584.0,324948.0,277368.0,92048.0,30458.0,21928.0,4583.0,1450.0,1466.0,810.0,390.0,123.0,99.0,48.0,28.0,7.0,5.0,5.0,3.0,3.0,1.0,1.0,1.0,1.0,2.0,0.0,0.0,0.0,0.0,0.0
15/1/2021 2:08:11 PM,359062.0,330636.0,312557.0,266692.0,87265.0,28229.0,20441.0,4157.0,1382.0,1421.0,753.0,400.0,103.0,84.0,56.0,28.0,6.0,5.0,6.0,4.0,2.0,1.0,1.0,1.0,1.0,0.0,0.0,0.0,0.0,0.0,0.0
15/1/2021 2:13:11 PM,357709.0,330448.0,311167.0,264607.0,86510.0,28097.0,20285.0,4165.0,1363.0,1298.0,756.0,340.0,114.0,82.0,48.0,31.0,10.0,3.0,6.0,3.0,1.0,1.0,1.0,0.0,1.0,0.0,1.0,0.0,0.0,0.0,0.0
15/1/2021 2:18:11 PM,355117.0,328153.0,310681.0,263531.0,86191.0,28117.0,20233.0,4123.0,1349.0,1313.0,747.0,352.0,118.0,97.0,45.0,26.0,10.0,5.0,7.0,5.0,0.0,1.0,0.0,1.0,0.0,1.0,0.0,0.0,0.0,0.0,0.0
15/1/2021 2:23:11 PM,333109.0,303517.0,280031.0,236262.0,76230.0,24676.0,17682.0,3787.0,1198.0,1185.0,680.0,354.0,103.0,59.0,58.0,30.0,6.0,5.0,5.0,4.0,2.0,1.0,0.0,0.0,0.0,1.0,0.0,0.0,1.0,0.0,0.0
15/1/2021 2:28:11 PM,334582.0,306234.0,280495.0,234497.0,74999.0,24148.0,17503.0,3686.0,1184.0,1155.0,701.0,327.0,94.0,50.0,47.0,23.0,9.0,4.0,3.0,2.0,0.0,1.0,1.0,1.0,0.0,0.0,0.0,0.0,0.0,0.0,0.0
15/1/2021 2:33:11 PM,321882.0,289619.0,262539.0,216043.0,69711.0,22564.0,16385.0,3444.0,1109.0,1122.0,652.0,303.0,104.0,60.0,32.0,15.0,4.0,3.0,3.0,1.0,1.0,0.0,0.0,1.0,0.0,0.0,1.0,0.0,0.0,0.0,0.0
15/1/2021 2:38:11 PM,324704.0,293443.0,267704.0,222510.0,72587.0,23348.0,16959.0,3580.0,1154.0,1190.0,632.0,344.0,108.0,78.0,32.0,21.0,4.0,2.0,4.0,2.0,1.0,0.0,1.0,0.0,0.0,0.0,0.0,0.0,0.0,0.0,0.0
15/1/2021 2:43:11 PM,329609.0,299942.0,273497.0,228312.0,74200.0,24286.0,17562.0,3650.0,1216.0,1198.0,626.0,326.0,117.0,75.0,35.0,15.0,5.0,4.0,3.0,4.0,2.0,0.0,1.0,1.0,1.0,0.0,0.0,0.0,0.0,0.0,0.0
15/1/2021 2:48:11 PM,343097.0,312267.0,290031.0,243874.0,79442.0,26086.0,18851.0,3913.0,1293.0,1262.0,647.0,323.0,102.0,86.0,36.0,15.0,8.0,2.0,7.0,2.0,1.0,2.0,1.0,1.0,0.0,0.0,1.0,0.0,0.0,0.0,0.0
15/1/2021 2:53:11 PM,352343.0,323091.0,300975.0,252249.0,82570.0,27269.0,19599.0,4057.0,1343.0,1281.0,758.0,335.0,97.0,83.0,43.0,22.0,4.0,5.0,4.0,3.0,1.0,1.0,0.0,0.0,1.0,0.0,0.0,0.0,0.0,0.0,0.0
15/1/2021 2:58:11 PM,348723.0,319038.0,293674.0,246596.0,81543.0,27036.0,19412.0,4007.0,1380.0,1299.0,774.0,337.0,104.0,83.0,44.0,21.0,5.0,3.0,6.0,2.0,2.0,0.0,2.0,1.0,0.0,0.0,0.0,0.0,0.0,0.0,0.0
15/1/2021 3:03:11 PM,325315.0,293551.0,269698.0,224135.0,73195.0,24356.0,17605.0,3813.0,1241.0,1153.0,702.0,335.0,87.0,71.0,50.0,22.0,8.0,5.0,4.0,3.0,0.0,1.0,0.0,0.0,1.0,0.0,0.0,0.0,0.0,0.0,0.0
15/1/2021 3:08:11 PM,315397.0,282937.0,257982.0,217905.0,70914.0,23717.0,17171.0,3715.0,1251.0,1122.0,668.0,306.0,84.0,69.0,36.0,15.0,3.0,4.0,3.0,0.0,0.0,1.0,0.0,1.0,0.0,1.0,0.0,0.0,0.0,0.0,0.0
15/1/2021 3:13:11 PM,320329.0,286163.0,262835.0,220431.0,72396.0,24404.0,17586.0,3800.0,1234.0,1241.0,703.0,348.0,91.0,68.0,47.0,28.0,6.0,4.0,4.0,5.0,1.0,1.0,1.0,0.0,1.0,0.0,0.0,0.0,0.0,0.0,0.0
15/1/2021 3:18:11 PM,325410.0,294327.0,269988.0,227333.0,75722.0,25177.0,18622.0,4147.0,1430.0,1396.0,766.0,341.0,114.0,82.0,41.0,24.0,7.0,4.0,7.0,3.0,2.0,1.0,0.0,1.0,0.0,0.0,0.0,1.0,0.0,0.0,0.0
15/1/2021 3:23:11 PM,326211.0,291942.0,267259.0,225041.0,75513.0,25771.0,18978.0,4424.0,1410.0,1454.0,824.0,397.0,131.0,113.0,56.0,30.0,8.0,4.0,8.0,5.0,2.0,0.0,1.0,1.0,1.0,1.0,0.0,0.0,0.0,0.0,0.0
15/1/2021 3:28:11 PM,318400.0,283831.0,258280.0,217542.0,73035.0,24340.0,17968.0,4156.0,1504.0,1463.0,845.0,381.0,149.0,113.0,50.0,26.0,9.0,6.0,7.0,3.0,1.0,1.0,1.0,2.0,0.0,0.0,0.0,0.0,0.0,0.0,0.0
15/1/2021 3:33:11 PM,310988.0,274574.0,248596.0,209873.0,70467.0,23875.0,17549.0,3987.0,1332.0,1342.0,815.0,374.0,139.0,86.0,47.0,23.0,7.0,4.0,5.0,2.0,0.0,1.0,1.0,0.0,1.0,0.0,0.0,0.0,0.0,0.0,0.0
15/1/2021 3:38:11 PM,309787.0,275878.0,251358.0,212894.0,71617.0,24540.0,17801.0,4123.0,1386.0,1357.0,796.0,379.0,97.0,94.0,50.0,26.0,7.0,4.0,4.0,2.0,1.0,0.0,0.0,2.0,0.0,1.0,0.0,0.0,0.0,0.0,0.0
15/1/2021 3:43:11 PM,313357.0,279638.0,255642.0,216659.0,73743.0,24962.0,18430.0,4133.0,1417.0,1416.0,792.0,377.0,104.0,87.0,69.0,29.0,8.0,6.0,6.0,2.0,1.0,2.0,1.0,0.0,1.0,0.0,1.0,0.0,0.0,0.0,0.0
15/1/2021 3:48:11 PM,316053.0,281413.0,258572.0,220910.0,75557.0,25823.0,19115.0,4383.0,1484.0,1392.0,872.0,450.0,121.0,119.0,49.0,26.0,6.0,5.0,4.0,3.0,1.0,0.0,0.0,1.0,0.0,1.0,0.0,0.0,0.0,0.0,0.0
15/1/2021 3:53:11 PM,316062.0,282946.0,261207.0,224849.0,77290.0,26586.0,19703.0,4379.0,1432.0,1451.0,839.0,388.0,140.0,88.0,36.0,18.0,6.0,3.0,6.0,2.0,1.0,1.0,1.0,0.0,1.0,0.0,0.0,1.0,0.0,0.0,0.0
15/1/2021 3:58:11 PM,319156.0,284881.0,264183.0,227906.0,78699.0,27253.0,20292.0,4593.0,1422.0,1410.0,838.0,380.0,124.0,87.0,46.0,21.0,4.0,4.0,5.0,4.0,1.0,0.0,1.0,1.0,1.0,0.0,0.0,0.0,0.0,0.0,0.0
15/1/2021 4:03:11 PM,318135.0,285536.0,265939.0,231646.0,79822.0,27451.0,19970.0,4558.0,1444.0,1399.0,848.0,350.0,120.0,76.0,35.0,20.0,8.0,5.0,4.0,3.0,1.0,1.0,0.0,0.0,1.0,0.0,2.0,0.0,1.0,0.0,0.0
15/1/2021 4:08:11 PM,317179.0,284428.0,266710.0,232596.0,80273.0,27575.0,20094.0,4352.0,1373.0,1368.0,730.0,348.0,115.0,85.0,55.0,28.0,6.0,5.0,5.0,3.0,2.0,1.0,2.0,1.0,0.0,1.0,0.0,0.0,0.0,0.0,0.0
15/1/2021 4:13:11 PM,319054.0,286201.0,269496.0,236863.0,82358.0,27888.0,20620.0,4385.0,1439.0,1387.0,745.0,377.0,79.0,85.0,38.0,20.0,5.0,4.0,3.0,5.0,1.0,0.0,0.0,0.0,0.0,1.0,1.0,0.0,0.0,0.0,0.0
15/1/2021 4:18:11 PM,303935.0,275917.0,266342.0,237509.0,82744.0,28116.0,19980.0,4205.0,1333.0,1289.0,720.0,348.0,113.0,67.0,49.0,20.0,4.0,4.0,3.0,2.0,2.0,0.0,1.0,1.0,0.0,0.0,0.0,1.0,0.0,0.0,0.0
15/1/2021 4:23:11 PM,304064.0,276104.0,268056.0,240540.0,83426.0,28342.0,20057.0,4221.0,1395.0,1295.0,734.0,347.0,118.0,98.0,42.0,17.0,9.0,2.0,6.0,3.0,3.0,1.0,1.0,1.0,0.0,1.0,1.0,0.0,0.0,0.0,0.0
15/1/2021 4:28:11 PM,307634.0,279790.0,271659.0,243042.0,85116.0,28181.0,20362.0,4370.0,1345.0,1344.0,745.0,348.0,100.0,68.0,38.0,21.0,5.0,3.0,4.0,2.0,0.0,1.0,0.0,0.0,2.0,0.0,0.0,0.0,0.0,0.0,0.0
15/1/2021 4:33:11 PM,308826.0,280412.0,272042.0,243437.0,85161.0,28537.0,20338.0,4390.0,1344.0,1340.0,756.0,348.0,110.0,71.0,41.0,25.0,6.0,4.0,6.0,2.0,2.0,0.0,1.0,0.0,1.0,0.0,0.0,0.0,0.0,0.0,0.0
15/1/2021 4:38:11 PM,307017.0,277813.0,271014.0,240200.0,84302.0,28233.0,20261.0,4225.0,1379.0,1353.0,738.0,364.0,106.0,90.0,58.0,23.0,7.0,4.0,5.0,3.0,0.0,2.0,1.0,1.0,0.0,1.0,0.0,0.0,0.0,0.0,0.0
15/1/2021 4:43:11 PM,309223.0,281103.0,271739.0,238815.0,83780.0,27934.0,20239.0,4365.0,1297.0,1390.0,768.0,335.0,110.0,78.0,68.0,36.0,8.0,3.0,6.0,2.0,2.0,0.0,1.0,0.0,0.0,0.0,1.0,0.0,0.0,1.0,0.0
15/1/2021 4:48:11 PM,314898.0,285045.0,274715.0,242084.0,83773.0,28271.0,20231.0,4331.0,1438.0,1326.0,745.0,357.0,117.0,80.0,46.0,23.0,6.0,2.0,4.0,3.0,1.0,1.0,0.0,0.0,1.0,0.0,0.0,0.0,0.0,0.0,0.0
15/1/2021 4:53:11 PM,321735.0,291064.0,277776.0,242158.0,83755.0,27946.0,20114.0,4481.0,1500.0,1437.0,824.0,400.0,101.0,113.0,51.0,33.0,7.0,5.0,6.0,2.0,1.0,1.0,1.0,0.0,1.0,0.0,0.0,1.0,0.0,0.0,0.0
15/1/2021 4:58:11 PM,322542.0,289798.0,274585.0,234894.0,79014.0,26452.0,19235.0,4346.0,1472.0,1464.0,813.0,399.0,108.0,104.0,54.0,26.0,6.0,4.0,6.0,5.0,3.0,0.0,0.0,1.0,0.0,0.0,1.0,0.0,0.0,0.0,0.0
15/1/2021 5:03:11 PM,320463.0,287291.0,267945.0,226309.0,74772.0,24575.0,18034.0,4128.0,1471.0,1379.0,839.0,383.0,101.0,86.0,44.0,22.0,5.0,3.0,3.0,2.0,1.0,1.0,1.0,0.0,1.0,0.0,0.0,0.0,0.0,0.0,0.0
15/1/2021 5:08:11 PM,322142.0,288979.0,267415.0,223925.0,73625.0,24268.0,17641.0,4043.0,1394.0,1436.0,801.0,393.0,113.0,97.0,51.0,22.0,3.0,3.0,4.0,4.0,1.0,0.0,0.0,1.0,0.0,1.0,0.0,0.0,0.0,0.0,0.0
15/1/2021 5:13:11 PM,331233.0,297349.0,273236.0,222959.0,72450.0,23489.0,17219.0,4135.0,1324.0,1383.0,893.0,392.0,120.0,90.0,57.0,26.0,8.0,5.0,4.0,3.0,1.0,1.0,2.0,0.0,0.0,1.0,0.0,1.0,0.0,0.0,0.0
15/1/2021 5:18:11 PM,334369.0,300375.0,273276.0,221121.0,70325.0,22924.0,16683.0,3856.0,1355.0,1359.0,848.0,393.0,121.0,101.0,46.0,22.0,7.0,3.0,7.0,2.0,1.0,1.0,0.0,1.0,0.0,0.0,1.0,0.0,0.0,0.0,0.0
15/1/2021 5:23:11 PM,341578.0,309286.0,281261.0,223175.0,70521.0,23027.0,16929.0,3979.0,1431.0,1471.0,864.0,394.0,110.0,71.0,42.0,18.0,5.0,2.0,4.0,2.0,2.0,1.0,0.0,1.0,0.0,1.0,0.0,0.0,0.0,0.0,0.0
15/1/2021 5:28:11 PM,332737.0,296601.0,266820.0,211275.0,67133.0,22075.0,16467.0,4182.0,1422.0,1517.0,845.0,395.0,116.0,101.0,30.0,20.0,4.0,3.0,5.0,2.0,1.0,0.0,1.0,0.0,1.0,0.0,0.0,1.0,0.0,0.0,0.0
15/1/2021 5:33:11 PM,330451.0,293725.0,263151.0,208557.0,66554.0,22295.0,16476.0,4186.0,1484.0,1463.0,891.0,412.0,110.0,72.0,41.0,22.0,5.0,3.0,5.0,2.0,1.0,1.0,1.0,0.0,0.0,1.0,0.0,0.0,0.0,0.0,0.0
15/1/2021 5:38:11 PM,332955.0,294658.0,259549.0,204477.0,65507.0,21927.0,16276.0,4261.0,1473.0,1521.0,920.0,386.0,98.0,69.0,30.0,14.0,6.0,2.0,2.0,4.0,1.0,0.0,1.0,0.0,0.0,0.0,1.0,0.0,0.0,0.0,0.0
15/1/2021 5:43:11 PM,328658.0,287027.0,251303.0,196616.0,62190.0,21145.0,15856.0,4343.0,1573.0,1612.0,942.0,389.0,102.0,68.0,44.0,13.0,2.0,3.0,2.0,2.0,1.0,0.0,0.0,1.0,0.0,0.0,0.0,0.0,0.0,0.0,0.0
15/1/2021 5:48:11 PM,330495.0,289965.0,253676.0,198912.0,63145.0,21266.0,16417.0,4481.0,1574.0,1732.0,968.0,408.0,104.0,69.0,45.0,23.0,6.0,3.0,3.0,2.0,1.0,0.0,1.0,0.0,1.0,0.0,0.0,1.0,0.0,0.0,0.0
15/1/2021 5:53:11 PM,332992.0,292627.0,257384.0,200260.0,64354.0,21866.0,16809.0,4507.0,1660.0,1824.0,1023.0,432.0,132.0,65.0,43.0,19.0,3.0,4.0,3.0,2.0,0.0,1.0,0.0,1.0,0.0,0.0,1.0,0.0,1.0,0.0,0.0
15/1/2021 5:58:11 PM,333949.0,292333.0,257553.0,201618.0,64634.0,22214.0,16585.0,4689.0,1806.0,1731.0,1006.0,449.0,131.0,98.0,43.0,23.0,5.0,4.0,4.0,3.0,0.0,1.0,0.0,1.0,1.0,0.0,0.0,0.0,0.0,0.0,0.0
15/1/2021 6:03:11 PM,334653.0,293844.0,258575.0,202779.0,65371.0,22248.0,17059.0,4752.0,1742.0,1808.0,1002.0,432.0,125.0,87.0,53.0,23.0,4.0,3.0,4.0,1.0,2.0,0.0,1.0,0.0,1.0,0.0,0.0,0.0,0.0,0.0,0.0
15/1/2021 6:08:11 PM,338928.0,297905.0,263563.0,207712.0,67403.0,22879.0,17579.0,4903.0,1804.0,1830.0,1062.0,450.0,113.0,82.0,40.0,22.0,4.0,2.0,5.0,1.0,0.0,1.0,0.0,1.0,0.0,0.0,0.0,0.0,0.0,0.0,0.0
15/1/2021 6:13:11 PM,333291.0,293560.0,262774.0,207810.0,67917.0,23487.0,18096.0,4974.0,1828.0,1909.0,1062.0,433.0,110.0,62.0,23.0,19.0,3.0,3.0,2.0,2.0,0.0,1.0,1.0,0.0,0.0,0.0,0.0,0.0,0.0,0.0,0.0
15/1/2021 6:18:11 PM,324767.0,285631.0,256469.0,203909.0,67007.0,23000.0,17823.0,4850.0,1797.0,1839.0,975.0,445.0,102.0,58.0,39.0,15.0,6.0,3.0,3.0,1.0,1.0,0.0,0.0,0.0,1.0,0.0,0.0,0.0,0.0,0.0,0.0
15/1/2021 6:23:11 PM,315378.0,276678.0,246556.0,196432.0,65001.0,22491.0,17042.0,4856.0,1827.0,1806.0,970.0,379.0,107.0,79.0,28.0,17.0,4.0,0.0,3.0,1.0,0.0,1.0,0.0,1.0,0.0,0.0,0.0,1.0,0.0,0.0,0.0
15/1/2021 6:28:11 PM,310438.0,271248.0,240928.0,191053.0,63301.0,21865.0,16951.0,4636.0,1710.0,1723.0,955.0,411.0,78.0,67.0,26.0,9.0,2.0,2.0,1.0,2.0,0.0,0.0,1.0,0.0,0.0,0.0,0.0,0.0,0.0,0.0,0.0
15/1/2021 6:33:11 PM,311631.0,271055.0,240478.0,188926.0,62093.0,21997.0,16562.0,4648.0,1637.0,1710.0,928.0,387.0,109.0,58.0,31.0,14.0,3.0,1.0,2.0,1.0,0.0,1.0,0.0,1.0,0.0,0.0,0.0,0.0,0.0,0.0,0.0
15/1/2021 6:38:11 PM,306992.0,267710.0,234642.0,184301.0,60787.0,21184.0,16242.0,4466.0,1674.0,1625.0,925.0,363.0,94.0,69.0,24.0,9.0,1.0,3.0,1.0,0.0,2.0,0.0,0.0,0.0,0.0,0.0,0.0,0.0,0.0,0.0,0.0
15/1/2021 6:43:11 PM,312658.0,271675.0,237313.0,187483.0,62058.0,21131.0,16210.0,4516.0,1672.0,1645.0,967.0,371.0,105.0,62.0,35.0,10.0,4.0,2.0,3.0,2.0,0.0,0.0,1.0,0.0,1.0,0.0,0.0,0.0,0.0,0.0,0.0
15/1/2021 6:48:11 PM,308224.0,268341.0,234424.0,183347.0,60470.0,21080.0,15811.0,4382.0,1544.0,1441.0,906.0,356.0,83.0,70.0,31.0,11.0,2.0,1.0,2.0,1.0,0.0,1.0,0.0,0.0,0.0,0.0,0.0,0.0,0.0,0.0,0.0
15/1/2021 6:53:11 PM,304020.0,265022.0,233127.0,182877.0,59753.0,20381.0,15542.0,4284.0,1511.0,1563.0,834.0,372.0,103.0,65.0,35.0,9.0,5.0,3.0,2.0,0.0,1.0,0.0,1.0,1.0,0.0,1.0,0.0,0.0,0.0,0.0,0.0
15/1/2021 6:58:11 PM,306573.0,268950.0,237170.0,188244.0,61690.0,21195.0,15853.0,4434.0,1556.0,1550.0,880.0,342.0,95.0,71.0,33.0,24.0,2.0,1.0,3.0,2.0,0.0,0.0,0.0,1.0,0.0,0.0,0.0,0.0,0.0,0.0,0.0
15/1/2021 7:03:11 PM,305069.0,268116.0,239194.0,191918.0,63068.0,21499.0,16357.0,4413.0,1530.0,1541.0,848.0,367.0,99.0,65.0,32.0,11.0,3.0,1.0,2.0,0.0,0.0,1.0,0.0,0.0,0.0,0.0,0.0,0.0,0.0,0.0,0.0
15/1/2021 7:08:11 PM,305663.0,267571.0,241247.0,192952.0,63107.0,21769.0,16078.0,4401.0,1530.0,1561.0,855.0,389.0,81.0,66.0,31.0,13.0,3.0,2.0,2.0,2.0,1.0,0.0,0.0,0.0,1.0,0.0,0.0,0.0,0.0,0.0,0.0
15/1/2021 7:13:11 PM,307295.0,270620.0,245102.0,195850.0,64056.0,21621.0,16330.0,4365.0,1499.0,1561.0,889.0,406.0,89.0,63.0,34.0,19.0,3.0,2.0,2.0,1.0,0.0,1.0,0.0,1.0,0.0,0.0,0.0,0.0,0.0,0.0,0.0
15/1/2021 7:18:11 PM,309556.0,273205.0,246901.0,197967.0,64729.0,21858.0,16020.0,4341.0,1462.0,1513.0,866.0,372.0,78.0,54.0,33.0,8.0,4.0,1.0,2.0,0.0,1.0,0.0,0.0,1.0,0.0,0.0,1.0,0.0,0.0,0.0,0.0
15/1/2021 7:23:11 PM,308795.0,271519.0,249697.0,199892.0,63787.0,21361.0,15610.0,4075.0,1380.0,1333.0,782.0,325.0,103.0,61.0,30.0,7.0,3.0,0.0,2.0,1.0,0.0,1.0,0.0,0.0,0.0,0.0,0.0,0.0,0.0,0.0,0.0
15/1/2021 7:28:11 PM,313694.0,278192.0,253157.0,203353.0,65547.0,22018.0,16234.0,4159.0,1506.0,1477.0,887.0,385.0,100.0,66.0,29.0,17.0,2.0,2.0,1.0,1.0,1.0,0.0,1.0,0.0,0.0,1.0,0.0,0.0,0.0,0.0,0.0
15/1/2021 7:33:11 PM,316912.0,281023.0,255159.0,205828.0,65545.0,21857.0,15773.0,4239.0,1508.0,1434.0,884.0,358.0,82.0,66.0,23.0,7.0,3.0,1.0,4.0,0.0,1.0,0.0,0.0,1.0,0.0,0.0,0.0,0.0,0.0,0.0,0.0
15/1/2021 7:38:11 PM,324296.0,288247.0,261608.0,210845.0,67696.0,22459.0,16574.0,4121.0,1440.0,1495.0,868.0,341.0,107.0,47.0,34.0,16.0,2.0,2.0,2.0,1.0,0.0,1.0,0.0,0.0,1.0,0.0,0.0,0.0,0.0,0.0,0.0
15/1/2021 7:43:11 PM,329832.0,291481.0,266127.0,214158.0,68820.0,22934.0,16517.0,4152.0,1410.0,1411.0,771.0,399.0,103.0,69.0,38.0,16.0,5.0,1.0,3.0,2.0,0.0,0.0,1.0,0.0,0.0,0.0,0.0,0.0,0.0,0.0,0.0
15/1/2021 7:48:11 PM,329247.0,293742.0,265804.0,211428.0,67421.0,22299.0,15985.0,3968.0,1362.0,1401.0,834.0,370.0,110.0,69.0,34.0,10.0,2.0,2.0,2.0,1.0,0.0,1.0,0.0,0.0,0.0,0.0,0.0,0.0,0.0,0.0,0.0
15/1/2021 7:53:11 PM,328662.0,294123.0,267519.0,213636.0,67245.0,22039.0,16157.0,3804.0,1358.0,1383.0,787.0,387.0,102.0,75.0,26.0,11.0,0.0,2.0,1.0,0.0,1.0,0.0,1.0,0.0,0.0,0.0,0.0,0.0,0.0,0.0,0.0
15/1/2021 7:58:11 PM,333834.0,299489.0,273690.0,218587.0,69450.0,22852.0,16595.0,3999.0,1438.0,1400.0,845.0,364.0,124.0,74.0,25.0,14.0,2.0,0.0,1.0,1.0,0.0,0.0,0.0,0.0,0.0,0.0,0.0,0.0,0.0,0.0,0.0
15/1/2021 8:03:11 PM,339349.0,304869.0,280463.0,223686.0,70962.0,23121.0,16827.0,4205.0,1419.0,1422.0,832.0,371.0,103.0,77.0,31.0,16.0,3.0,0.0,2.0,1.0,0.0,1.0,0.0,1.0,0.0,1.0,0.0,0.0,0.0,0.0,0.0
15/1/2021 8:08:11 PM,343288.0,309261.0,283374.0,227053.0,72586.0,23697.0,17424.0,4087.0,1447.0,1470.0,805.0,353.0,112.0,71.0,22.0,9.0,2.0,4.0,2.0,0.0,1.0,0.0,1.0,0.0,0.0,0.0,0.0,0.0,0.0,0.0,0.0
15/1/2021 8:13:11 PM,349907.0,313594.0,288426.0,230562.0,73213.0,24075.0,17445.0,4116.0,1337.0,1447.0,872.0,381.0,110.0,62.0,39.0,16.0,3.0,1.0,5.0,1.0,0.0,1.0,0.0,0.0,0.0,0.0,0.0,0.0,0.0,0.0,0.0
15/1/2021 8:18:11 PM,347260.0,311597.0,287738.0,228605.0,71758.0,23290.0,16666.0,4003.0,1402.0,1420.0,835.0,384.0,116.0,65.0,27.0,16.0,5.0,2.0,3.0,2.0,1.0,0.0,0.0,1.0,0.0,0.0,0.0,0.0,0.0,0.0,0.0
15/1/2021 8:23:11 PM,349436.0,315340.0,289092.0,230192.0,71813.0,23211.0,16509.0,4033.0,1333.0,1430.0,862.0,346.0,100.0,56.0,38.0,14.0,8.0,1.0,4.0,2.0,1.0,1.0,0.0,0.0,1.0,0.0,1.0,0.0,0.0,0.0,0.0
15/1/2021 8:28:11 PM,346987.0,311215.0,287046.0,223855.0,69441.0,22361.0,15850.0,3825.0,1326.0,1317.0,773.0,354.0,88.0,54.0,34.0,13.0,4.0,4.0,3.0,1.0,0.0,1.0,1.0,0.0,0.0,1.0,0.0,0.0,0.0,0.0,0.0
15/1/2021 8:33:11 PM,347703.0,312842.0,285994.0,224799.0,70004.0,22372.0,16149.0,3819.0,1365.0,1329.0,818.0,382.0,119.0,74.0,34.0,17.0,7.0,3.0,3.0,2.0,1.0,1.0,0.0,0.0,1.0,0.0,0.0,0.0,0.0,0.0,0.0
15/1/2021 8:38:11 PM,350998.0,315691.0,289056.0,227330.0,70637.0,22735.0,16203.0,3912.0,1317.0,1344.0,816.0,397.0,102.0,79.0,38.0,15.0,6.0,3.0,5.0,3.0,0.0,0.0,2.0,1.0,0.0,0.0,0.0,1.0,0.0,0.0,0.0
15/1/2021 8:43:11 PM,352447.0,316468.0,289177.0,228687.0,70701.0,22676.0,16447.0,3875.0,1247.0,1334.0,866.0,387.0,91.0,67.0,36.0,19.0,6.0,5.0,4.0,2.0,1.0,1.0,0.0,1.0,0.0,0.0,0.0,0.0,0.0,0.0,0.0
15/1/2021 8:48:11 PM,350653.0,315679.0,291109.0,229741.0,71058.0,22686.0,16355.0,3816.0,1260.0,1344.0,851.0,382.0,97.0,83.0,40.0,21.0,4.0,3.0,3.0,0.0,1.0,0.0,0.0,0.0,0.0,0.0,0.0,0.0,0.0,0.0,0.0
15/1/2021 8:53:11 PM,351192.0,319851.0,295652.0,231830.0,71355.0,22775.0,16331.0,3840.0,1351.0,1245.0,798.0,385.0,119.0,54.0,37.0,21.0,4.0,1.0,4.0,1.0,0.0,1.0,0.0,0.0,0.0,0.0,1.0,0.0,0.0,0.0,0.0
15/1/2021 8:58:11 PM,353819.0,323473.0,299500.0,234687.0,72810.0,23063.0,16440.0,3829.0,1311.0,1353.0,849.0,373.0,136.0,101.0,35.0,16.0,6.0,2.0,2.0,3.0,0.0,0.0,2.0,0.0,1.0,0.0,0.0,0.0,0.0,0.0,0.0
15/1/2021 9:03:11 PM,355169.0,324049.0,300347.0,237264.0,72500.0,22740.0,16372.0,3773.0,1231.0,1342.0,819.0,372.0,98.0,58.0,30.0,16.0,3.0,1.0,4.0,1.0,1.0,0.0,0.0,1.0,0.0,1.0,0.0,0.0,0.0,0.0,0.0
15/1/2021 9:08:11 PM,355952.0,324560.0,302733.0,240063.0,73724.0,23389.0,16699.0,3833.0,1398.0,1409.0,819.0,398.0,107.0,92.0,34.0,19.0,5.0,2.0,3.0,1.0,0.0,0.0,0.0,1.0,1.0,0.0,0.0,1.0,0.0,0.0,0.0
15/1/2021 9:13:11 PM,354977.0,324107.0,303899.0,241467.0,74903.0,23878.0,17115.0,4044.0,1403.0,1355.0,854.0,404.0,120.0,90.0,30.0,17.0,4.0,4.0,2.0,2.0,1.0,0.0,1.0,0.0,0.0,0.0,1.0,0.0,0.0,0.0,0.0
15/1/2021 9:18:11 PM,359820.0,328231.0,308046.0,245287.0,76074.0,24190.0,17287.0,4122.0,1420.0,1380.0,873.0,406.0,108.0,84.0,35.0,19.0,6.0,2.0,4.0,1.0,0.0,1.0,0.0,0.0,1.0,0.0,0.0,0.0,0.0,0.0,0.0
15/1/2021 9:23:11 PM,362170.0,332732.0,311699.0,248056.0,77542.0,24955.0,18038.0,4230.0,1419.0,1433.0,882.0,458.0,124.0,101.0,38.0,14.0,3.0,2.0,5.0,0.0,1.0,0.0,2.0,0.0,0.0,0.0,0.0,0.0,0.0,0.0,0.0
15/1/2021 9:28:11 PM,361562.0,331900.0,311677.0,246610.0,77130.0,24955.0,17819.0,4103.0,1434.0,1471.0,929.0,441.0,129.0,75.0,55.0,27.0,7.0,5.0,4.0,2.0,0.0,1.0,0.0,0.0,1.0,0.0,0.0,0.0,0.0,1.0,0.0
15/1/2021 9:33:11 PM,360818.0,329466.0,308859.0,245150.0,76742.0,24769.0,17833.0,4206.0,1412.0,1484.0,879.0,459.0,128.0,93.0,38.0,17.0,7.0,3.0,5.0,2.0,2.0,0.0,0.0,1.0,0.0,0.0,0.0,0.0,0.0,0.0,0.0
15/1/2021 9:38:11 PM,358860.0,327035.0,306490.0,242562.0,75725.0,24256.0,17708.0,4365.0,1425.0,1548.0,937.0,457.0,139.0,107.0,35.0,17.0,8.0,4.0,5.0,2.0,1.0,0.0,2.0,0.0,1.0,0.0,0.0,0.0,0.0,0.0,0.0
15/1/2021 9:43:11 PM,355487.0,325827.0,303677.0,240773.0,75450.0,23890.0,17617.0,4271.0,1521.0,1570.0,983.0,496.0,134.0,113.0,53.0,21.0,8.0,5.0,6.0,3.0,1.0,1.0,1.0,0.0,0.0,0.0,1.0,0.0,0.0,0.0,0.0
15/1/2021 9:48:11 PM,356957.0,326751.0,307054.0,242528.0,75783.0,24575.0,17685.0,4342.0,1555.0,1689.0,980.0,477.0,161.0,103.0,51.0,16.0,8.0,5.0,7.0,4.0,1.0,1.0,0.0,1.0,1.0,0.0,0.0,0.0,0.0,0.0,0.0
15/1/2021 9:53:11 PM,361373.0,330320.0,311162.0,247015.0,77737.0,24892.0,18319.0,4515.0,1590.0,1756.0,1048.0,495.0,154.0,96.0,62.0,29.0,9.0,6.0,8.0,4.0,2.0,1.0,0.0,1.0,0.0,1.0,0.0,0.0,0.0,0.0,0.0
15/1/2021 9:58:11 PM,361958.0,331382.0,310764.0,247932.0,77267.0,25210.0,18074.0,4597.0,1557.0,1706.0,1030.0,515.0,151.0,122.0,49.0,31.0,10.0,4.0,6.0,4.0,2.0,1.0,1.0,1.0,0.0,0.0,0.0,0.0,0.0,0.0,0.0
15/1/2021 10:03:11 PM,362086.0,331748.0,313618.0,250100.0,77509.0,25023.0,18396.0,4574.0,1594.0,1692.0,1054.0,501.0,143.0,111.0,48.0,25.0,8.0,5.0,6.0,4.0,0.0,1.0,0.0,1.0,0.0,0.0,1.0,0.0,0.0,0.0,0.0
15/1/2021 10:08:11 PM,364116.0,335362.0,318766.0,254124.0,79141.0,25344.0,18402.0,4555.0,1561.0,1727.0,1052.0,488.0,166.0,121.0,59.0,36.0,8.0,6.0,5.0,6.0,1.0,1.0,1.0,0.0,1.0,0.0,0.0,0.0,0.0,0.0,0.0
15/1/2021 10:13:11 PM,368397.0,339165.0,322878.0,257243.0,80620.0,26046.0,18897.0,4687.0,1649.0,1733.0,1102.0,536.0,151.0,109.0,59.0,18.0,11.0,5.0,9.0,5.0,1.0,0.0,1.0,0.0,0.0,1.0,0.0,0.0,0.0,0.0,0.0
15/1/2021 10:18:11 PM,367489.0,337257.0,319216.0,254574.0,78494.0,25563.0,18070.0,4543.0,1564.0,1666.0,1009.0,517.0,160.0,108.0,53.0,30.0,6.0,6.0,6.0,3.0,1.0,2.0,0.0,1.0,1.0,0.0,0.0,0.0,0.0,0.0,0.0
15/1/2021 10:23:11 PM,359723.0,329242.0,308647.0,242918.0,74290.0,23405.0,16801.0,4012.0,1415.0,1462.0,865.0,466.0,126.0,88.0,55.0,20.0,6.0,5.0,4.0,2.0,1.0,1.0,1.0,0.0,0.0,0.0,0.0,1.0,0.0,0.0,0.0
15/1/2021 10:28:11 PM,364654.0,333410.0,312491.0,247016.0,75908.0,24239.0,17345.0,4066.0,1426.0,1541.0,947.0,472.0,128.0,89.0,44.0,24.0,6.0,4.0,4.0,3.0,1.0,0.0,1.0,1.0,0.0,0.0,0.0,0.0,0.0,0.0,0.0
15/1/2021 10:33:11 PM,366398.0,336437.0,315006.0,247839.0,76214.0,24317.0,17291.0,4046.0,1498.0,1567.0,945.0,436.0,113.0,120.0,44.0,21.0,9.0,5.0,4.0,3.0,0.0,1.0,0.0,0.0,0.0,1.0,0.0,0.0,0.0,0.0,0.0
15/1/2021 10:38:11 PM,359375.0,328788.0,307845.0,239280.0,73235.0,22943.0,16436.0,3848.0,1263.0,1380.0,857.0,428.0,118.0,83.0,34.0,17.0,6.0,2.0,3.0,1.0,1.0,0.0,0.0,1.0,0.0,0.0,0.0,0.0,0.0,0.0,0.0
15/1/2021 10:43:11 PM,355683.0,326407.0,303999.0,236323.0,71499.0,22538.0,15882.0,3639.0,1332.0,1297.0,803.0,339.0,99.0,67.0,39.0,13.0,2.0,1.0,3.0,1.0,0.0,1.0,0.0,0.0,1.0,0.0,0.0,0.0,0.0,0.0,0.0
15/1/2021 10:48:11 PM,346130.0,315519.0,288047.0,222081.0,65838.0,20611.0,14677.0,3454.0,1170.0,1168.0,726.0,350.0,87.0,58.0,19.0,12.0,2.0,1.0,1.0,1.0,0.0,0.0,0.0,0.0,0.0,0.0,0.0,0.0,0.0,0.0,0.0
15/1/2021 10:53:11 PM,345029.0,311990.0,283445.0,217095.0,65052.0,20190.0,14156.0,3422.0,1157.0,1235.0,679.0,342.0,98.0,54.0,31.0,11.0,1.0,2.0,2.0,0.0,1.0,0.0,0.0,1.0,0.0,0.0,0.0,0.0,0.0,0.0,0.0
15/1/2021 10:58:11 PM,347237.0,317436.0,291971.0,226142.0,67353.0,21136.0,14783.0,3450.0,1157.0,1270.0,739.0,323.0,79.0,67.0,32.0,10.0,3.0,0.0,2.0,1.0,0.0,0.0,0.0,0.0,0.0,0.0,0.0,0.0,0.0,0.0,0.0
15/1/2021 11:03:11 PM,348025.0,318343.0,292440.0,226868.0,68410.0,21191.0,15033.0,3533.0,1181.0,1168.0,777.0,317.0,94.0,75.0,35.0,11.0,2.0,0.0,2.0,1.0,0.0,1.0,0.0,0.0,0.0,0.0,0.0,0.0,0.0,0.0,0.0
15/1/2021 11:08:11 PM,347304.0,314679.0,289205.0,223007.0,65989.0,20743.0,14633.0,3449.0,1117.0,1216.0,662.0,315.0,90.0,60.0,45.0,15.0,2.0,3.0,1.0,0.0,2.0,0.0,0.0,1.0,0.0,0.0,0.0,0.0,0.0,0.0,0.0
15/1/2021 11:13:11 PM,345866.0,313439.0,286317.0,219579.0,65521.0,20581.0,14458.0,3360.0,1142.0,1183.0,685.0,327.0,88.0,56.0,30.0,11.0,3.0,1.0,3.0,2.0,0.0,0.0,1.0,0.0,0.0,0.0,0.0,0.0,0.0,0.0,0.0
15/1/2021 11:18:11 PM,348354.0,315432.0,287142.0,220829.0,66244.0,20379.0,14753.0,3358.0,1165.0,1215.0,715.0,317.0,87.0,75.0,26.0,13.0,4.0,1.0,1.0,0.0,1.0,1.0,0.0,0.0,0.0,0.0,0.0,0.0,0.0,0.0,0.0
15/1/2021 11:23:11 PM,348135.0,316751.0,288923.0,222832.0,66220.0,20807.0,14933.0,3434.0,1180.0,1235.0,669.0,326.0,87.0,62.0,17.0,9.0,2.0,3.0,2.0,1.0,0.0,1.0,0.0,0.0,0.0,0.0,0.0,0.0,0.0,0.0,0.0
15/1/2021 11:28:11 PM,346886.0,316513.0,288654.0,223757.0,66343.0,20765.0,14681.0,3336.0,1169.0,1261.0,692.0,332.0,82.0,63.0,27.0,15.0,3.0,2.0,2.0,1.0,0.0,0.0,0.0,0.0,1.0,0.0,1.0,0.0,0.0,0.0,0.0
15/1/2021 11:33:11 PM,348122.0,318430.0,295163.0,229774.0,68581.0,21374.0,15033.0,3564.0,1200.0,1257.0,711.0,357.0,97.0,62.0,32.0,15.0,4.0,1.0,3.0,1.0,1.0,0.0,0.0,0.0,0.0,0.0,0.0,0.0,0.0,0.0,0.0
15/1/2021 11:38:11 PM,353170.0,324439.0,301340.0,235924.0,70966.0,21891.0,15680.0,3614.0,1235.0,1197.0,711.0,380.0,89.0,67.0,33.0,15.0,2.0,2.0,3.0,1.0,0.0,0.0,1.0,0.0,0.0,0.0,0.0,0.0,0.0,0.0,0.0
15/1/2021 11:43:11 PM,354866.0,325990.0,305004.0,237340.0,71519.0,22098.0,15900.0,3649.0,1225.0,1298.0,693.0,360.0,91.0,65.0,18.0,7.0,3.0,0.0,2.0,1.0,1.0,0.0,0.0,0.0,0.0,1.0,0.0,0.0,0.0,0.0,0.0
15/1/2021 11:48:11 PM,355490.0,325707.0,303788.0,237406.0,71414.0,22286.0,15860.0,3500.0,1202.0,1243.0,763.0,334.0,88.0,50.0,27.0,11.0,2.0,2.0,2.0,1.0,0.0,1.0,0.0,0.0,0.0,0.0,0.0,1.0,0.0,0.0,0.0
15/1/2021 11:53:11 PM,355032.0,325411.0,304160.0,236669.0,71259.0,22215.0,15710.0,3642.0,1217.0,1301.0,775.0,375.0,91.0,73.0,31.0,13.0,4.0,1.0,2.0,1.0,0.0,0.0,0.0,1.0,0.0,0.0,0.0,0.0,0.0,0.0,0.0
15/1/2021 11:58:11 PM,360884.0,329795.0,306599.0,239536.0,72478.0,22754.0,16343.0,3879.0,1347.0,1478.0,877.0,418.0,140.0,100.0,29.0,15.0,7.0,2.0,3.0,1.0,2.0,1.0,0.0,0.0,0.0,0.0,1.0,0.0,0.0,0.0,0.0
